<?xml version="1.0" encoding="UTF-8"?>
<svg width="20px" height="20px" viewBox="0 0 20 20" version="1.1" xmlns="http://www.w3.org/2000/svg" xmlns:xlink="http://www.w3.org/1999/xlink">
    <!-- Generator: Sketch 49.3 (51167) - http://www.bohemiancoding.com/sketch -->
    <title>Back</title>
    <desc>Created with Sketch.</desc>
    <defs></defs>
    <g id="Page-1" stroke="none" stroke-width="1" fill="none" fill-rule="evenodd">
        <g id="Thống-kê" transform="translate(-19.000000, -40.000000)" fill="#000000" fill-rule="nonzero">
            <g id="Back" transform="translate(19.000000, 40.000000)">
                <polygon id="Shape" points="20 8.75 4.7875 8.75 11.775 1.7625 10 0 0 10 10 20 11.7625 18.2375 4.7875 11.25 20 11.25"></polygon>
            </g>
        </g>
    </g>
</svg>