<?xml version="1.0" encoding="UTF-8"?>
<svg width="16px" height="15px" viewBox="0 0 16 15" version="1.1" xmlns="http://www.w3.org/2000/svg" xmlns:xlink="http://www.w3.org/1999/xlink">
    <!-- Generator: Sketch 49.3 (51167) - http://www.bohemiancoding.com/sketch -->
    <title>gloves</title>
    <desc>Created with Sketch.</desc>
    <defs></defs>
    <g id="Page-1" stroke="none" stroke-width="1" fill="none" fill-rule="evenodd">
        <g id="Menu-chính" transform="translate(-27.000000, -265.000000)" fill="#000000" fill-rule="nonzero">
            <g id="gloves" transform="translate(27.000000, 265.000000)">
                <path d="M13.1756592,9.52209472 L10.6501465,9.52209472 C10.1750488,9.52209472 9.78857422,9.90856934 9.78857422,10.383667 L9.78857422,10.8691406 C9.78857422,11.3441162 10.1750488,11.7305908 10.6501465,11.7305908 L13.1756592,11.7305908 C13.6507568,11.7305908 14.0372314,11.3441162 14.0372314,10.8691406 L14.0372314,10.383667 C14.0372314,9.90856934 13.6507568,9.52209472 13.1756592,9.52209472 Z M13.5684814,10.8691406 C13.5684814,11.0856934 13.3922119,11.2618408 13.1756592,11.2618408 L10.6500244,11.2618408 C10.4334717,11.2618408 10.2573242,11.0856934 10.2573242,10.8691406 L10.2573242,10.383667 C10.2573242,10.1671143 10.4334717,9.99084472 10.6500244,9.99084472 L13.1756592,9.99084472 C13.3922119,9.99084472 13.5684814,10.1671143 13.5684814,10.383667 L13.5684814,10.8691406 Z" id="Shape"></path>
                <path d="M5.3498535,3.34130859 L2.82434081,3.34130859 C2.34924316,3.34130859 1.96276856,3.72766113 1.96276856,4.20275878 L1.96276856,4.68823244 C1.96276856,5.16333006 2.34924316,5.54980469 2.82434081,5.54980469 L5.3498535,5.54980469 C5.82495119,5.54980469 6.21142578,5.16333006 6.21142578,4.68823244 L6.21142578,4.20275878 C6.21142578,3.72766113 5.82495119,3.34130859 5.3498535,3.34130859 Z M5.74267578,4.68823244 C5.74267578,4.90478516 5.56652831,5.08105469 5.3498535,5.08105469 L2.82434081,5.08105469 C2.607666,5.08105469 2.43151856,4.90478516 2.43151856,4.68823244 L2.43151856,4.20275878 C2.43151856,3.98620606 2.607666,3.81005859 2.82434081,3.81005859 L5.3498535,3.81005859 C5.56652831,3.81005859 5.74267578,3.98620606 5.74267578,4.20275878 L5.74267578,4.68823244 Z" id="Shape"></path>
                <path d="M15.6228027,7.43493653 L14.8441162,7.04821778 C14.5739746,6.9140625 14.2342529,6.97814941 14.0332031,7.20654297 C14.0341797,7.19189453 14.0352783,7.17687987 14.0361328,7.1623535 C14.0551758,6.82458497 13.8195801,6.52111816 13.4881592,6.45654297 C13.4881592,6.45654297 12.6523437,6.2977295 12.6087647,6.2977295 C12.3708496,6.2977295 12.1546631,6.42211912 12.0324707,6.61865234 C11.9338379,6.36120606 11.6837158,6.18090819 11.3985596,6.18090819 L10.6354981,6.18090819 C10.2978516,6.18090819 10.008667,6.43298341 9.9626465,6.767334 C9.95458984,6.82653809 9.94750975,6.88757325 9.94104003,6.94946287 C9.78698731,6.631958 9.44287109,6.44238281 9.0928955,6.56018066 L8.34790037,6.81103516 C8.03271484,6.91711425 7.84167481,7.232666 7.89379881,7.56127931 C7.94433594,7.87988281 8.02783203,8.19311525 8.13085937,8.49841309 L8.07971191,8.47839356 C7.86193847,8.39306641 7.61926269,8.42468262 7.43041994,8.56298828 L6.83874512,8.99682619 C6.61071778,9.16394044 6.51098631,9.44873047 6.58483887,9.72229003 C6.75939941,10.3690186 7.26367187,11.6463623 8.68115234,13.0063477 L8.68115234,13.835083 C8.68115234,14.3321533 9.08569337,14.7365722 9.58276369,14.7365722 L13.9904785,14.7365722 C14.4875488,14.7365722 14.8920898,14.3321533 14.8920898,13.835083 L14.8920898,12.9615478 C15.6645508,11.4265137 15.9091797,9.80603028 15.9775391,8.71154784 C15.9921875,8.47961425 15.9996338,8.25476075 16,8.04357909 C16.0003662,7.78369141 15.855835,7.55053712 15.6228027,7.43493653 Z M14.3693847,7.53649903 C14.4276123,7.45129394 14.5437012,7.42248534 14.6356201,7.46813966 L15.4144287,7.85473631 C15.4865723,7.89050294 15.5313721,7.9626465 15.53125,8.04272462 C15.5311279,8.13500975 15.529541,8.23010253 15.5264892,8.3272705 L14.2628174,7.70019531 C14.2974853,7.64428712 14.3693847,7.53649903 14.3693847,7.53649903 Z M12.6087647,6.7664795 C12.6223144,6.7664795 13.3984375,6.91662597 13.3984375,6.91662597 C13.5010986,6.9366455 13.5739746,7.03088378 13.5681152,7.13598631 C13.5653076,7.18713378 13.5615234,7.23950194 13.5568847,7.29284669 L12.361084,7.05957031 C12.3768311,7.00842284 12.3930664,6.95849609 12.4095459,6.91003419 C12.4389648,6.82409669 12.5189209,6.7664795 12.6087647,6.7664795 Z M10.427124,6.83117675 C10.4412842,6.72766112 10.5308838,6.64965819 10.6354981,6.64965819 L11.3985596,6.64965819 C11.5030517,6.64965819 11.5926514,6.72766112 11.6069336,6.83117675 C11.616333,6.89953612 11.6245117,6.97021484 11.6315918,7.04272462 L10.4024658,7.04272462 C10.4094238,6.97021484 10.4176025,6.89953612 10.427124,6.83117675 Z M8.49743653,7.25524903 L9.24243162,7.00439453 C9.26440431,6.99694825 9.28710937,6.99316406 9.30993653,6.99316406 C9.3897705,6.99316406 9.46142578,7.03710937 9.49682619,7.10778809 C9.52575684,7.16552734 9.55444337,7.22631837 9.58264159,7.289917 L8.39392091,7.69006347 C8.37951659,7.62109375 8.3671875,7.55346681 8.35681153,7.48779297 C8.34057619,7.38598631 8.39978028,7.28808594 8.49743653,7.25524903 Z M14.5129394,12.671875 L13.3619385,12.671875 C13.2324219,12.671875 13.1275635,12.7767334 13.1275635,12.90625 C13.1275635,13.0356445 13.2324219,13.140625 13.3619385,13.140625 L14.4232178,13.140625 L14.4232178,13.8349609 C14.4232178,14.0736084 14.229126,14.2678223 13.9903564,14.2678223 L9.58276369,14.2678223 C9.34411622,14.2678223 9.14990234,14.0736084 9.14990234,13.8349609 L9.14990234,13.140625 L12.4244385,13.140625 C12.553833,13.140625 12.6588135,13.0356445 12.6588135,12.90625 C12.6588135,12.7767334 12.553833,12.671875 12.4244385,12.671875 L9.00915528,12.671875 C7.61950684,11.3394775 7.16784669,10.0834961 7.0373535,9.60009766 C7.01452637,9.51501466 7.04528809,9.42663575 7.11596681,9.37475587 L7.70751953,8.94104003 C7.76599122,8.89819337 7.84118653,8.88842775 7.90869141,8.91479494 L8.451416,9.12756347 C8.5390625,9.16186525 8.63879394,9.14050294 8.70458984,9.07312012 C8.77038575,9.00573731 8.78955078,8.90551756 8.75305175,8.8186035 C8.65771484,8.59106444 8.57629394,8.3654785 8.51013184,8.14550781 L9.75390625,7.72680662 C9.81884766,7.91381837 9.87902831,8.11437987 9.93359375,8.32531737 C9.96386719,8.44274903 10.0789795,8.51757812 10.1984863,8.49792481 C10.3181152,8.4782715 10.4030762,8.37060547 10.3942871,8.24963378 C10.3758545,7.99707031 10.3693847,7.74975587 10.3748779,7.51147462 L11.6590576,7.51147462 C11.6645508,7.74975587 11.6580811,7.99707031 11.6396484,8.24963378 C11.6303711,8.37658691 11.7241211,8.48779297 11.8508301,8.5 C11.9775391,8.51208497 12.0908203,8.42114256 12.1060791,8.29479981 C12.1387939,8.02355956 12.1838379,7.76159669 12.2402344,7.51354981 L13.4979248,7.75891112 C13.456665,8.01147462 13.3999023,8.27160644 13.3288574,8.53344725 C13.2963867,8.65295409 13.3625488,8.77709962 13.4798584,8.81689453 C13.597168,8.85656737 13.7252197,8.79809569 13.7719727,8.68334962 C13.8548584,8.48046875 13.9423828,8.28833006 14.0333252,8.10961912 L15.4990234,8.83691406 C15.4219971,9.86206056 15.1843262,11.3013916 14.5129394,12.671875 Z" id="Shape"></path>
                <path d="M0.0224609375,2.53063966 C0.0908203125,3.62512206 0.335449219,5.24548341 1.10791016,6.78063966 L1.10791016,7.65417481 C1.10791016,8.15124512 1.51245119,8.55566406 2.0095215,8.55566406 L6.41723631,8.55566406 C6.91430663,8.55566406 7.31872559,8.15124512 7.31872559,7.65417481 L7.31872559,6.82543944 C8.73632812,5.46545409 9.24060059,4.18798828 9.41503906,3.54138184 C9.48889159,3.26782225 9.38928222,2.98315431 9.16113281,2.81591797 L8.56958006,2.38208006 C8.38085938,2.24377441 8.13806153,2.21215819 7.92028809,2.29748534 L7.86914062,2.31750488 C7.91992188,2.16723631 7.96435547,2.01855469 8.00244141,1.87243653 C8.04650878,1.70251466 8.08142091,1.53698731 8.10620119,1.38037109 C8.15832519,1.05175781 7.96740722,0.736206062 7.65222169,0.630126938 C7.65222169,0.630126938 6.90722656,0.379272469 6.9071045,0.379272469 C6.59033203,0.272583 6.23413087,0.417724625 6.0842285,0.716674812 C6.07568359,0.7335205 6.06738281,0.751342781 6.05908203,0.768554688 C6.05249025,0.706665031 6.04553222,0.645629875 6.0373535,0.586425781 C5.99145506,0.252075188 5.70214844,0 5.36462403,0 L4.6015625,0 C4.31628419,0 4.06616212,0.180297844 3.96765138,0.437866219 C3.845459,0.241333 3.62915038,0.116821281 3.39123534,0.116821281 C3.10314941,0.116821281 2.79394531,0.220581062 2.51184081,0.27563475 C2.18041994,0.340332031 1.94494628,0.643798812 1.96386719,0.981567375 C1.96472169,0.99609375 1.96582031,1.01098631 1.96679688,1.02575684 C1.83923341,0.880859375 1.65441894,0.796386719 1.45812988,0.796386719 C1.35400391,0.796386719 1.24951172,0.820922844 1.15600588,0.867431625 L0.377075188,1.25402831 C0.144165031,1.36962891 -0.0003662125,1.60290528 1.66533454e-16,1.86254881 C0.0003662125,2.07385253 0.0078125,2.298584 0.0224609375,2.53063966 Z M8.09130859,2.73388672 C8.15881347,2.70751953 8.23400878,2.71728516 8.29235841,2.76013184 L8.88403319,3.19384766 C8.95471191,3.24572753 8.98559569,3.33410644 8.9626465,3.41918944 C8.83215331,3.90258788 8.38061525,5.15856934 6.99096681,6.49096681 L3.58068847,6.49096681 C3.45129394,6.49096681 3.34631347,6.59594725 3.34631347,6.72534181 C3.34631347,6.85473631 3.45129394,6.95971681 3.58068847,6.95971681 L6.85009766,6.95971681 L6.85009766,7.65417481 C6.85009766,7.89282225 6.65588378,8.08691406 6.41723631,8.08691406 L2.0095215,8.08691406 C1.77087403,8.08691406 1.57666016,7.89282225 1.57666016,7.65417481 L1.57666016,6.95971681 L2.64318847,6.95971681 C2.772583,6.95971681 2.87756347,6.85473631 2.87756347,6.72534181 C2.87756347,6.59594725 2.772583,6.49096681 2.64318847,6.49096681 L1.48706056,6.49096681 C0.81555175,5.12048341 0.578002937,3.68115234 0.500976562,2.65612794 L1.96667481,1.928833 C2.05761719,2.10742188 2.14501953,2.29956056 2.22790528,2.50256347 C2.33557128,2.7664795 2.74584962,2.62805175 2.6710205,2.35253906 C2.59997559,2.09069825 2.54321288,1.83044434 2.50207519,1.578125 L3.75976562,1.33276369 C3.81604003,1.58056641 3.861084,1.84265137 3.89379881,2.11389159 C3.92932128,2.40771484 4.38183594,2.36376953 4.3602295,2.06884766 C4.34191894,1.81628419 4.33544922,1.56884766 4.34094238,1.33068847 L5.625,1.33068847 C5.63061525,1.56884766 5.6241455,1.81616212 5.60571288,2.06884766 C5.58544922,2.345459 5.99694825,2.41296387 6.06640625,2.14453125 C6.12084962,1.93347169 6.18103028,1.73303222 6.24609375,1.5460205 L7.48974609,1.96472169 C7.42370606,2.18469238 7.34228516,2.41027831 7.24682619,2.63781738 C7.16845703,2.82482909 7.36010744,3.02050781 7.548584,2.94665528 L8.09130859,2.73388672 Z M6.50317381,0.926879875 C6.54943847,0.834716812 6.66027831,0.7907715 6.75756837,0.823486313 L7.50268556,1.07434081 C7.60034181,1.10717775 7.65942381,1.20507812 7.64331056,1.30688475 C7.6328125,1.37255859 7.62048341,1.44018556 7.60607909,1.50915528 L6.41735841,1.10900878 C6.44555663,1.04541016 6.47412109,0.984619125 6.50317381,0.926879875 Z M4.39306641,0.650268562 C4.40734863,0.546752937 4.49694825,0.46875 4.60144044,0.46875 L5.36450194,0.46875 C5.46911622,0.46875 5.55871581,0.546752937 5.57299806,0.650268562 C5.58239747,0.718627937 5.59057619,0.789306625 5.59753419,0.861816406 L4.36840819,0.861816406 C4.37548828,0.789428719 4.383667,0.718627937 4.39306641,0.650268562 Z M2.6015625,0.735717781 C2.6015625,0.735717781 3.37768556,0.585571281 3.39123534,0.585571281 C3.48107909,0.585571281 3.56115722,0.643310563 3.59045409,0.729125969 C3.60693359,0.777587875 3.62316894,0.827514656 3.638916,0.878662125 L2.44311525,1.11193847 C2.43847656,1.05871581 2.43469238,1.00634766 2.43188475,0.955078125 C2.42602538,0.850097656 2.49890138,0.755737312 2.6015625,0.735717781 Z M0.585571281,1.67382812 C0.585571281,1.67382812 1.36254881,1.288208 1.36437988,1.28723144 C1.54821778,1.19592284 1.65734863,1.390625 1.73718263,1.51940919 L0.47351075,2.14648438 C0.470459,2.04919434 0.468872063,1.95410156 0.46875,1.86193847 C0.468627938,1.78173828 0.51342775,1.70971681 0.585571281,1.67382812 Z" id="Shape"></path>
            </g>
        </g>
    </g>
</svg>