<?xml version="1.0" encoding="UTF-8"?>
<svg width="244px" height="268px" viewBox="0 0 244 268" version="1.1" xmlns="http://www.w3.org/2000/svg" xmlns:xlink="http://www.w3.org/1999/xlink">
    <!-- Generator: Sketch 49.3 (51167) - http://www.bohemiancoding.com/sketch -->
    <title>Group</title>
    <desc>Created with Sketch.</desc>
    <defs>
        <polygon id="path-1" points="0.000105780347 0.287958572 243.785618 0.287958572 243.785618 141.424696 0.000105780347 141.424696"></polygon>
        <linearGradient x1="35.1920747%" y1="-63.9072729%" x2="100%" y2="299.399836%" id="linearGradient-3">
            <stop stop-color="#FCD8C6" offset="0%"></stop>
            <stop stop-color="#F7B094" offset="100%"></stop>
        </linearGradient>
        <linearGradient x1="50%" y1="0%" x2="50%" y2="100%" id="linearGradient-4">
            <stop stop-color="#FCD8C6" offset="0%"></stop>
            <stop stop-color="#F7B094" offset="100%"></stop>
        </linearGradient>
        <linearGradient x1="50%" y1="0%" x2="50%" y2="100%" id="linearGradient-5">
            <stop stop-color="#B77054" offset="0%"></stop>
            <stop stop-color="#F2937B" stop-opacity="0" offset="100%"></stop>
        </linearGradient>
        <linearGradient x1="50%" y1="72.7193033%" x2="186.797398%" y2="57.9109067%" id="linearGradient-6">
            <stop stop-color="#77E1F6" offset="0%"></stop>
            <stop stop-color="#42BFEA" offset="100%"></stop>
        </linearGradient>
        <linearGradient x1="50%" y1="0%" x2="50%" y2="100%" id="linearGradient-7">
            <stop stop-color="#77E1F6" offset="0%"></stop>
            <stop stop-color="#42BFEA" offset="100%"></stop>
        </linearGradient>
        <polygon id="path-8" points="0.0438635838 0.231936675 36.1671468 0.231936675 36.1671468 47.0033053 0.0438635838 47.0033053"></polygon>
        <linearGradient x1="50%" y1="0%" x2="269.974834%" y2="-14.9748926%" id="linearGradient-10">
            <stop stop-color="#77E1F6" offset="0%"></stop>
            <stop stop-color="#42BFEA" offset="100%"></stop>
        </linearGradient>
        <linearGradient x1="50%" y1="0%" x2="90.7501094%" y2="100%" id="linearGradient-11">
            <stop stop-color="#FCD339" offset="0%"></stop>
            <stop stop-color="#4C493E" offset="100%"></stop>
        </linearGradient>
        <linearGradient x1="50%" y1="0%" x2="239.97852%" y2="114.626918%" id="linearGradient-12">
            <stop stop-color="#77E1F6" offset="0%"></stop>
            <stop stop-color="#42BFEA" offset="100%"></stop>
        </linearGradient>
        <linearGradient x1="50%" y1="0%" x2="50%" y2="100%" id="linearGradient-13">
            <stop stop-color="#E49B7E" offset="0%"></stop>
            <stop stop-color="#F2937B" stop-opacity="0" offset="100%"></stop>
        </linearGradient>
    </defs>
    <g id="Page-1" stroke="none" stroke-width="1" fill="none" fill-rule="evenodd">
        <g id="Slap-4" transform="translate(-66.000000, -249.000000)">
            <g id="Group" transform="translate(66.000000, 248.000000)">
                <g id="Group-3" transform="translate(0.000000, 127.343261)">
                    <mask id="mask-2" fill="white">
                        <use xlink:href="#path-1"></use>
                    </mask>
                    <g id="Clip-2"></g>
                    <path d="M99.5575711,5.86955356 L9.64145549,57.9251947 C-3.21367746,65.3683821 -3.21367746,77.4347462 9.64145549,84.8772264 C22.4972936,92.3197066 43.339548,92.3197066 56.1953861,84.8772264 L72.4756867,75.4519704 L174.550195,134.547738 C190.389039,143.717015 216.068276,143.717015 231.90712,134.547738 C247.745964,125.377754 247.745964,110.510472 231.90712,101.341902 L129.831906,42.246134 L146.111502,32.8208781 C158.966635,25.379105 158.966635,13.3120338 146.111502,5.86955356 C133.255664,-1.57292665 112.412704,-1.57221953 99.5575711,5.86955356" id="Fill-1" fill-opacity="0.0583673007" fill="#7D5E84" mask="url(#mask-2)"></path>
                </g>
                <polygon id="Fill-4" fill="#5B3E60" points="59.2405202 199.358609 52.6045665 203.209606 28.6551908 181.652224 22.0185318 176.116857 28.6551908 172.26586 59.2405202 189.972245"></polygon>
                <polygon id="Fill-5" fill="#B2B2B2" points="182.95529 202.83278 189.623683 206.693677 182.99055 248.015883 176.322157 244.155693 176.320747 206.673878"></polygon>
                <polygon id="Fill-6" fill="#3D2941" points="189.623754 206.693677 189.625164 244.175492 182.990621 248.01659 182.98921 210.534775"></polygon>
                <polygon id="Fill-7" fill="#7D5E84" points="202.171418 192.034643 208.839106 195.894833 202.205268 237.217746 195.53758 233.357556 195.53617 195.87574"></polygon>
                <polygon id="Fill-8" fill="#3D2941" points="208.839106 195.894833 208.840517 233.376648 202.205268 237.217746 202.204563 199.736637"></polygon>
                <polygon id="Fill-9" fill="#7D5E84" points="41.0065272 74.6216507 47.674215 78.4825478 41.0065272 151.330463 108.162238 112.390558 108.162238 35.6831599 114.796782 31.8420623 121.465175 35.7022522 114.831336 153.752363 108.162238 149.892173 108.162238 121.801672 47.6749202 160.785418 41.0403769 196.531951 34.372689 192.671761 34.3719838 78.4634554"></polygon>
                <polygon id="Fill-10" fill="#5B3E60" points="47.674215 78.4825478 47.6749202 155.190653 114.829926 116.251455 114.829926 39.5433499 121.465175 35.7022522 121.46588 149.911973 114.830631 153.752363 114.829926 121.846221 47.6749202 160.785418 47.6749202 192.691561 41.0403769 196.531951 41.0396717 82.3236454"></polygon>
                <polygon id="Fill-11" fill="#3D2941" points="86.7117468 118.403304 208.839388 189.102977 208.839388 195.894903 182.957053 210.878861 60.8294116 133.387262"></polygon>
                <polygon id="Fill-12" fill="#7D5E84" points="60.8292705 133.387545 182.956912 204.087218 182.956912 210.879144 60.8292705 140.178764"></polygon>
                <g id="Group-236" transform="translate(9.872832, 0.768063)">
                    <path d="M201.93172,188.30967 L78.0445988,116.590324 L78.0445988,116.530218 C78.0445988,113.254113 80.3379168,111.926134 83.1678936,113.56454 L196.808425,179.35253 C199.638402,180.990229 201.93172,184.973459 201.93172,188.249564 L201.93172,188.30967 Z" id="Fill-13" fill="#575756"></path>
                    <polygon id="Fill-15" fill="#5B3E60" points="47.9910624 131.47182 170.390207 206.509698 201.931791 188.249635 79.5333514 113.212463"></polygon>
                    <path d="M170.415947,206.554671 L46.5288254,134.835326 L46.5288254,134.77522 C46.5288254,131.499822 48.8228486,130.171843 51.6521202,131.809542 L165.293357,197.597531 C168.122629,199.235231 170.415947,203.21846 170.415947,206.494566 L170.415947,206.554671 Z" id="Fill-17" fill="#3D2941"></path>
                    <polygon id="Fill-19" fill="#EDEDED" points="35.8958555 92.0779409 32.4692775 94.0119251 36.7646647 89.0670069 40.191948 87.1323156 41.8167341 88.0734976"></polygon>
                    <polygon id="Fill-21" fill="#B2B2B2" points="36.7649468 89.0671483 32.4646231 91.9748422 32.4646231 94.0099451 32.4688543 94.0120665 38.3904382 90.0076232"></polygon>
                    <polygon id="Fill-23" fill="#EDEDED" points="35.8958555 103.212386 32.4692775 105.14637 36.7646647 100.200745 40.191948 98.2667609 41.8167341 99.207943"></polygon>
                    <polygon id="Fill-25" fill="#B2B2B2" points="36.7649468 100.200887 32.4646231 103.109288 32.4646231 105.144391 32.4688543 105.146512 38.3904382 101.142069"></polygon>
                    <polygon id="Fill-27" fill="#EDEDED" points="35.8958555 114.346125 32.4692775 116.280816 36.7646647 111.335191 40.191948 109.401206 41.8167341 110.341681"></polygon>
                    <polygon id="Fill-29" fill="#B2B2B2" points="36.7649468 111.335332 32.4646231 114.243026 32.4646231 116.278836 32.4688543 116.280957 38.3904382 112.276514"></polygon>
                    <polygon id="Fill-31" fill="#5B3E60" points="109.686603 49.327981 106.260025 51.2619652 110.554708 46.3163398 113.981991 44.3823557 115.607482 45.3228306"></polygon>
                    <polygon id="Fill-33" fill="#3D2941" points="110.55499 46.3164813 106.255371 49.2241752 106.255371 51.2599852 106.259602 51.2621066 112.180481 47.2576633"></polygon>
                    <polygon id="Fill-35" fill="#5B3E60" points="109.686603 60.46179 106.260025 62.3964813 110.554708 57.4508559 113.981991 55.5168718 115.607482 56.4573467"></polygon>
                    <polygon id="Fill-37" fill="#3D2941" points="110.55499 57.4509266 106.255371 60.3586206 106.255371 62.3937235 106.259602 62.396552 112.180481 58.3921087"></polygon>
                    <polygon id="Fill-39" fill="#5B3E60" points="109.686603 71.5961646 106.260025 73.5308559 110.554708 68.5852306 114.270283 68.5852306"></polygon>
                    <polygon id="Fill-41" fill="#3D2941" points="110.55499 68.585372 106.255371 71.493066 106.255371 73.5281689 106.259602 73.5309974 112.180481 69.5265541"></polygon>
                    <polygon id="Fill-43" fill="#7D5E84" points="42.7315931 202.441755 12.1455584 184.73537 12.1455584 175.349006 42.7315931 193.055391"></polygon>
                    <path d="M109.26997,46.7108443 C111.229022,45.1933562 113.391877,43.9403325 115.681669,42.9977361 C116.880513,42.5041636 118.276109,42.1025172 119.431935,42.688723 C120.086363,43.019657 120.558849,43.6235409 120.946005,44.2472243 C122.751323,47.1542111 123.094756,50.7181161 123.231565,54.1405963 C123.280929,55.3830132 123.288687,56.710285 122.625797,57.7617784 C122.017912,58.7284169 120.946005,59.2919947 119.887496,59.715562 C118.079357,60.4389499 116.106906,60.8858522 114.18382,60.588153 C112.260028,60.2904538 110.396883,59.1491557 109.587311,57.3742744 C109.260802,56.6565435 109.114825,55.872343 108.971669,55.096628 C108.583103,52.9893984 108.193831,50.8637836 108.243901,48.721905 C108.253773,48.3216728 108.282687,47.9080053 108.466745,47.5537361 C108.647276,47.2065383 108.961091,46.9505594 109.26997,46.7108443" id="Fill-45" fill="url(#linearGradient-3)"></path>
                    <path d="M83.458437,77.79941 C83.531778,78.5871462 83.5867838,79.4038744 83.3300902,80.1520116 C82.7835584,81.7465763 81.0332462,82.5463335 79.4239746,83.0363704 C77.6292347,83.5836844 75.6871075,83.9662385 73.8944832,83.4132675 C71.7273965,82.7450354 70.1477434,80.7898375 69.3515699,78.6606871 C68.5546913,76.5329509 68.4228185,74.2213625 68.2987029,71.9514945 C68.2726104,71.458629 68.2528647,70.9346501 68.4968647,70.5068401 C68.7288763,70.1002438 69.1583445,69.8548718 69.5730035,69.6413203 C72.7287838,68.0170565 76.2759514,67.1656792 79.8231191,67.1791145 C80.2744486,67.1805288 80.7497549,67.2031567 81.1362058,67.4372148 C81.7363329,67.7999694 81.9507145,68.5544707 82.1051538,69.240381 C82.7398358,72.0596844 83.1925757,74.9207082 83.458437,77.79941" id="Fill-47" fill="url(#linearGradient-4)"></path>
                    <path d="M83.6974301,76.5467398 C80.1636613,80.2287346 76.2815225,81.2781066 71.8711873,78.3301066 L71.9480543,70.9632887 C75.0657538,69.6607662 76.7046439,71.3748348 79.3202393,71.5947504 L83.6974301,76.5467398 Z" id="Fill-49" fill="url(#linearGradient-5)"></path>
                    <path d="M123.074446,54.3372475 C119.540677,58.0192422 115.658539,59.0686142 111.248203,56.1206142 L111.325071,48.7537963 C114.44277,47.4512739 116.082365,49.1653425 118.697255,49.385258 L123.074446,54.3372475 Z" id="Fill-51" fill="url(#linearGradient-5)"></path>
                    <path d="M176.586467,12.8479483 C176.586467,11.6189668 177.128768,10.8552728 177.950328,10.6975842 C177.963022,10.6947557 177.972895,10.6940485 177.987704,10.6954628 L177.99123,10.6926343 C178.465831,10.6091937 179.029993,10.7329404 179.636467,11.0822596 C181.316259,12.0580908 182.682236,14.4297847 182.685057,16.3764971 C182.685057,17.0814997 182.510166,17.6337636 182.200583,18.0035894 L182.197057,18.0050037 C182.190005,18.0191462 182.185068,18.0269245 182.176606,18.0368243 C181.628664,18.6718216 180.696386,18.7566765 179.634351,18.1428929 C177.951739,17.168476 176.585057,14.7967821 176.586467,12.8479483" id="Fill-53" fill="url(#linearGradient-6)"></path>
                    <polygon id="Fill-55" fill="url(#linearGradient-7)" points="177.46522 10.8791736 181.776827 18.3662026 167.875173 26.413981 163.564272 18.926952"></polygon>
                    <path d="M162.671133,20.9035757 C162.671838,19.6745942 163.213434,18.9109003 164.034994,18.7532116 C164.048393,18.7503831 164.057561,18.749676 164.07237,18.7510902 L164.076601,18.7489689 C164.550497,18.6648211 165.115364,18.7885678 165.721133,19.1378871 C167.40163,20.1137182 168.766902,22.4861193 168.769723,24.4321245 C168.769723,25.1371272 168.594832,25.689391 168.285249,26.0592169 L168.281723,26.0613383 C168.274671,26.0747736 168.269734,26.082552 168.261272,26.0931588 C167.713329,26.7281562 166.781052,26.812304 165.719017,26.1985203 C164.036405,25.2248106 162.670428,22.8524095 162.671133,20.9035757" id="Fill-57" fill="#B2B2B2"></path>
                    <polygon id="Fill-59" fill="#F39200" points="146.652533 4.13356412 172.195666 48.495696 176.854232 45.7987251 151.311099 1.43659314"></polygon>
                    <g id="Group-63" transform="translate(145.976879, 0.000000)">
                        <mask id="mask-9" fill="white">
                            <use xlink:href="#path-8"></use>
                        </mask>
                        <g id="Clip-62"></g>
                        <path d="M15.1584647,22.8005066 C15.1443607,22.7333298 15.1295514,22.666153 15.1182682,22.5996834 C15.1055746,22.5183641 15.0978173,22.4370449 15.0886497,22.3564327 C15.0844185,22.3118839 15.0766613,22.266628 15.0724301,22.2220792 C15.0667884,22.1492454 15.0660832,22.0771187 15.0632624,22.0049921 C15.0611468,21.9540792 15.0562104,21.9024591 15.0562104,21.8522533 L15.0569156,21.8473034 C15.0569156,21.7065858 15.0667884,21.5729393 15.0808925,21.4442427 C15.0851237,21.4081794 15.0907653,21.3735303 15.0957017,21.3388813 C15.1098058,21.2448338 15.1260254,21.1536148 15.1464763,21.0673456 C15.1549387,21.0326966 15.1634012,20.9994617 15.173274,20.9662269 C15.1986613,20.8735937 15.2296902,20.7859103 15.2628347,20.7031768 C15.2705919,20.6854987 15.2762335,20.6664063 15.2839908,20.6494354 C15.2889272,20.6395356 15.2938636,20.6317573 15.2988,20.6211504 C15.3411121,20.5306385 15.3862451,20.4429551 15.4384301,20.3644644 L15.4426613,20.3588074 C15.4532393,20.3432507 15.4666382,20.3312296 15.476511,20.3163799 C15.5244647,20.2506174 15.5738289,20.1869763 15.6288347,20.1311135 C15.6408231,20.1183852 15.6535168,20.1063641 15.6662104,20.0950501 C15.6725572,20.088686 15.6796092,20.0837361 15.6859561,20.077372 C15.7430775,20.0243377 15.8023145,19.9741319 15.8657827,19.9317045 C15.8749503,19.9260475 15.8820023,19.9203905 15.8904647,19.9147335 C15.8989272,19.9097836 15.9073896,19.906248 15.915852,19.900591 C15.9927191,19.8539208 16.0709965,19.8114934 16.1549156,19.7796728 C16.1570312,19.7789657 16.1591468,19.7789657 16.1612624,19.7775515 C16.2557595,19.7421953 16.3544879,19.7153245 16.4588578,19.6983536 C16.5702798,19.6785541 16.6880486,19.6728971 16.8093434,19.6757256 C16.8213318,19.6764327 16.8340254,19.6757256 16.8474243,19.6764327 C16.9658983,19.6813826 17.0893087,19.6983536 17.2169503,19.7259314 C17.2416324,19.7322955 17.2684301,19.7414881 17.2938173,19.7485594 C17.3318983,19.757752 17.3713896,19.7733087 17.4087653,19.7846227 C17.4672971,19.8023008 17.5258289,19.8192718 17.5864763,19.8418997 C17.6330197,19.8595778 17.679563,19.8779631 17.7275168,19.8984697 C17.8213087,19.9394828 17.9172162,19.9875673 18.0145341,20.0398945 C18.045563,20.0568654 18.0751815,20.0695937 18.1062104,20.0879789 C18.5554243,20.3482005 18.9820717,20.710248 19.3664069,21.1359367 C20.1985457,22.0587335 20.8297017,23.2834723 21.0581873,24.462248 C21.1188347,24.7740897 21.1548,25.08381 21.1548,25.3822164 C21.1548,25.3949446 21.1533896,25.4055515 21.1533896,25.4168654 C21.1519792,25.556876 21.1421064,25.6898153 21.1272971,25.8178047 C21.1216555,25.8609393 21.1153087,25.9040739 21.1089618,25.9457942 C21.0906266,26.0603483 21.0673549,26.1706596 21.0377364,26.2731926 C21.0328,26.292285 21.0285688,26.3134987 21.0229272,26.3318839 C20.984141,26.4563377 20.9368925,26.5708918 20.8825919,26.6769604 C20.8748347,26.6925172 20.8663723,26.7066596 20.8579098,26.7222164 C20.8014936,26.8261636 20.7387306,26.9237467 20.6675052,27.0086016 C20.6026266,27.0892137 20.530696,27.1606332 20.4538289,27.2242744 C20.4510081,27.2271029 20.4481873,27.2299314 20.4453665,27.2320528 C20.3804879,27.2850871 20.3106728,27.3268074 20.2387422,27.3678206 C20.2267538,27.3748918 20.2154705,27.3833773 20.2027769,27.3897414 C20.1865572,27.3982269 20.1696324,27.4052982 20.1534127,27.4130765 C20.1040486,27.4371187 20.0511584,27.4547968 19.9996786,27.4724749 C19.9771121,27.4802533 19.9552509,27.490153 19.9319792,27.4972243 C19.9108231,27.5028813 19.8903723,27.5099525 19.8692162,27.5149024 C19.8261988,27.5262164 19.7803607,27.529752 19.7352277,27.5368232 C19.6823376,27.5453087 19.631563,27.5580369 19.575852,27.5608654 C19.5342451,27.5629868 19.4905225,27.5580369 19.4475052,27.5580369 C19.3819214,27.5573298 19.3163376,27.5587441 19.2486382,27.5502586 C19.2303029,27.5488443 19.213378,27.5446016 19.1964532,27.5424802 C19.1767075,27.5396517 19.1562566,27.5339947 19.1372162,27.5304591 C19.0631699,27.5191451 18.9884185,27.5057098 18.9115514,27.4859103 C18.885459,27.4788391 18.8600717,27.4710607 18.8339792,27.4639894 C18.8219908,27.4604538 18.8100023,27.4547968 18.7987191,27.4512612 C18.7126844,27.4250976 18.6259445,27.3946913 18.5377942,27.3579208 C18.5180486,27.3508496 18.4990081,27.3437784 18.4792624,27.3345858 C18.3565572,27.2815515 18.2317364,27.2193245 18.1055052,27.1464908 C16.7374127,26.3545119 15.5801757,24.6411504 15.1937249,22.9808232 C15.1796208,22.9200106 15.1704532,22.8606121 15.1584647,22.8005066 M0.0438635838,13.1616992 C0.0438635838,24.7111557 8.1304185,38.7546385 18.1055052,44.5297203 C28.0805919,50.3048021 36.1671468,45.622934 36.1671468,34.0734776 C36.167852,22.5240211 28.0812971,8.47983113 18.1062104,2.70545646 C8.1304185,-3.06962533 0.0438635838,1.61224274 0.0438635838,13.1616992" id="Fill-61" fill="#F39200" mask="url(#mask-9)"></path>
                    </g>
                    <path d="M159.423324,22.7853034 C161.107347,23.7597203 162.471913,26.13 162.471913,28.080248 C162.471913,30.0297889 161.107347,30.8203536 159.423324,29.8452296 C157.738595,28.8701055 156.374029,26.4998259 156.374029,24.550285 C156.374029,22.6007441 157.738595,21.8101794 159.423324,22.7853034 M159.422618,47.227752 C169.39841,53.0021266 177.48426,48.3209657 177.48426,36.7708021 C177.48426,25.2213456 169.39841,11.1771557 159.423324,5.402781 C149.447532,-0.372300792 141.361682,4.30956728 141.361682,15.8597309 C141.361682,27.4091873 149.447532,41.4526702 159.422618,47.227752" id="Fill-64" fill="#F9B233"></path>
                    <path d="M157.776042,22.3961731 C158.249938,22.3127325 158.816215,22.430115 159.424099,22.7829699 C161.104597,23.7588011 162.469868,26.1312021 162.472689,28.0779145 C162.473394,28.7829172 162.294273,29.3365953 161.985394,29.7064211 C161.445209,30.3718248 160.499533,30.4687008 159.422689,29.8436032 C157.738666,28.8698934 156.373394,26.4981995 156.374099,24.5486586 C156.37551,23.3048274 156.931914,22.532648 157.776042,22.3961731 M145.389163,18.1894923 C145.390573,27.162896 151.673221,38.0745266 159.422689,42.5626427 C163.531198,44.942115 167.223637,45.0368697 169.791984,43.2662311 C172.070492,41.6935873 173.457625,38.652247 173.457625,34.4370807 C173.456215,25.463677 167.173568,14.5513393 159.424805,10.0646375 C155.78455,7.95670079 152.463753,7.64203061 149.966631,8.83282744 C147.152874,10.1777773 145.388458,13.431962 145.389163,18.1894923" id="Fill-66" fill="#DE8500"></path>
                    <path d="M160.339946,22.2532633 C162.019738,23.2290945 163.385009,25.6014955 163.38783,27.5482079 C163.38924,28.7955747 162.832836,29.5677541 161.988709,29.7049361 L161.985183,29.7070575 C161.978131,29.7204929 161.972489,29.7282712 161.964027,29.7374639 C161.41679,30.3731683 160.483807,30.4580232 159.422477,29.8435325 C157.73916,28.8698227 156.373183,26.4981288 156.373888,24.549295 C156.374593,23.3203135 156.916188,22.5559124 157.738454,22.3982237 C157.751148,22.3961024 157.760316,22.3953953 157.77583,22.3961024 L157.779356,22.393981 C158.319541,21.7292844 159.262397,21.6288728 160.339946,22.2532633 M146.305009,17.6597858 C146.305714,26.6331894 152.589067,37.5448201 160.33783,42.032229 C163.978084,44.1401657 167.294651,44.4576644 169.791772,43.2661604 C172.070281,41.6935166 173.458119,38.6521763 173.458119,34.43701 C173.456709,25.4643135 167.173356,14.5512686 159.424593,10.0645668 C155.784339,7.95663008 152.463541,7.64195989 149.96642,8.83275673 C147.689321,10.4061077 146.304304,13.4446195 146.305009,17.6597858" id="Fill-68" fill="#F39200"></path>
                    <path d="M159.422618,29.843391 C157.738595,28.8696813 156.373324,26.4986945 156.374029,24.5491536 C156.374734,23.320172 156.915624,22.555771 157.73789,22.3980823 C158.285832,21.763085 159.215994,21.6746945 160.277324,22.2891852 C161.961347,23.262895 163.326618,25.635296 163.325913,27.5841298 C163.325913,28.8131113 162.786434,29.5803409 161.964168,29.7380296 C161.416931,30.3730269 160.483948,30.4578818 159.422618,29.843391 M155.21115,18.0103778 C154.261948,18.7860929 153.687913,20.1557921 153.689324,22.0056285 C153.689324,26.2207947 156.63848,31.3424939 160.278734,33.4504306 C161.876017,34.3760559 163.345659,34.5634438 164.490908,34.125734 C165.940098,33.5656918 166.867439,31.9958765 166.866029,29.6369108 C166.866029,25.4217446 163.916873,20.3000454 160.276618,18.1921087 C158.239289,17.0119187 156.419867,17.0317182 155.21115,18.0103778" id="Fill-70" fill="#DE8500"></path>
                    <path d="M159.422618,29.843391 C157.738595,28.8696813 156.373324,26.4986945 156.374029,24.5491536 C156.374734,23.320172 156.915624,22.555771 157.73789,22.3980823 C157.751289,22.3959609 157.760457,22.3952538 157.775971,22.3959609 L157.779497,22.3938396 C158.254098,22.3103989 158.81826,22.4341456 159.424029,22.7834649 C161.104526,23.759296 162.469798,26.13099 162.472618,28.0777024 C162.473324,28.782705 162.297728,29.3342617 161.98885,29.7047947 L161.985324,29.7069161 C161.978272,29.7203515 161.97263,29.7281298 161.964168,29.7380296 C161.416931,30.3730269 160.483948,30.4578818 159.422618,29.843391 M152.835324,22.4999082 C152.836029,26.7143673 155.785185,31.8367736 159.425439,33.9447103 C161.462769,35.1249003 163.282191,35.1043937 164.490908,34.125734 C165.44011,33.3507261 166.014145,31.9803198 166.013439,30.1304834 C166.012734,25.9160243 163.063578,20.7943251 159.423324,18.6856813 C157.825335,17.7607631 156.355694,17.5733752 155.21115,18.0103778 C153.76196,18.5711272 152.834618,20.1409425 152.835324,22.4999082" id="Fill-72" fill="#F9B233"></path>
                    <polygon id="Fill-74" fill="#F39200" points="141.31394 7.22475673 166.857073 51.5861815 171.514934 48.8892106 145.971801 4.52778575"></polygon>
                    <path d="M155.796116,25.8914164 C155.782717,25.8242396 155.767202,25.7577699 155.756624,25.6905931 C155.743931,25.6092739 155.736173,25.5279546 155.726301,25.4473425 C155.722069,25.4027937 155.714312,25.3575377 155.710786,25.313696 C155.704439,25.239448 155.703734,25.1680285 155.700913,25.0959018 C155.699503,25.0449889 155.694566,24.9926617 155.694566,24.9424559 L155.694566,24.9396274 C155.695272,24.7967884 155.704439,24.6638491 155.719249,24.5351525 C155.722775,24.4983821 155.728416,24.4644401 155.733353,24.429791 C155.747457,24.3357435 155.763676,24.2452317 155.784127,24.1582554 C155.793295,24.1243135 155.801052,24.0896644 155.810925,24.0571367 C155.837017,23.9645034 155.867341,23.8768201 155.901191,23.7933794 C155.908243,23.7764084 155.91459,23.7573161 155.922347,23.7410522 C155.926578,23.7304454 155.93222,23.722667 155.936451,23.7127673 C155.979468,23.6208412 156.024601,23.5338649 156.076786,23.454667 L156.079607,23.4518385 C156.091595,23.4341604 156.104289,23.4221393 156.114867,23.4065826 C156.162821,23.3415272 156.212185,23.277886 156.266486,23.2220232 C156.279179,23.209295 156.291168,23.1972739 156.303861,23.1852528 C156.310208,23.1795958 156.31726,23.1746459 156.324312,23.1682818 C156.381434,23.1152475 156.440671,23.0650417 156.504139,23.0219071 C156.512601,23.0169573 156.519653,23.0105931 156.528116,23.0056433 C156.536578,23.0006934 156.54504,22.9971578 156.553503,22.9915008 C156.63037,22.9448306 156.708647,22.9024032 156.793272,22.8705826 C156.795387,22.8698755 156.796798,22.8691683 156.798913,22.8684612 C156.894116,22.833105 156.992844,22.8062343 157.097214,22.7892633 C157.207931,22.7694639 157.325699,22.7630997 157.446994,22.7666354 C157.459688,22.7666354 157.472382,22.7666354 157.48578,22.7673425 C157.604254,22.7729995 157.727665,22.7892633 157.854601,22.8168412 C157.879988,22.8232053 157.906081,22.8323979 157.932173,22.838762 C157.969549,22.8486617 158.00904,22.8642185 158.047121,22.8755325 C158.105653,22.8932106 158.164185,22.9101815 158.224127,22.9328095 C158.271376,22.9504876 158.317919,22.9688728 158.365168,22.9893794 C158.45896,23.0303926 158.555572,23.078477 158.652185,23.1308042 C158.683214,23.1477752 158.712832,23.1605034 158.744566,23.1781815 C159.19378,23.4384032 159.619723,23.8011578 160.004763,24.2268464 C160.836197,25.1489361 161.467353,26.3743821 161.696543,27.5531578 C161.757191,27.8649995 161.793156,28.1747198 161.793156,28.4731261 C161.793156,28.4858544 161.79104,28.4964612 161.79104,28.5077752 C161.78963,28.6477858 161.779757,28.7807251 161.764948,28.9087145 C161.760012,28.9518491 161.753665,28.9949836 161.746613,29.036704 C161.728277,29.1505509 161.705711,29.2615694 161.676092,29.3641024 C161.670451,29.3831947 161.666925,29.4044084 161.660578,29.4227937 C161.622497,29.5472475 161.574543,29.6618016 161.520948,29.7678702 C161.512486,29.7834269 161.504023,29.7975694 161.496266,29.8131261 C161.439145,29.9170734 161.377087,30.0146565 161.305156,30.0995113 C161.240277,30.1801235 161.168347,30.251543 161.09148,30.3151842 C161.088659,30.3180127 161.086543,30.3208412 161.083723,30.3236697 C161.018844,30.3759968 160.949029,30.4177172 160.876393,30.4587303 C160.864405,30.4650945 160.853121,30.4735799 160.841133,30.4806512 C160.824913,30.4891367 160.807283,30.496915 160.791064,30.5039863 C160.742405,30.5280285 160.689514,30.5449995 160.637329,30.5626776 C160.614763,30.5711631 160.592902,30.5810628 160.56963,30.588134 C160.548474,30.593791 160.528728,30.6008623 160.507572,30.6058121 C160.46385,30.616419 160.418717,30.6199546 160.373584,30.627733 C160.320694,30.6362185 160.269214,30.6489467 160.214208,30.6510681 C160.172601,30.6538966 160.128173,30.6489467 160.085861,30.6489467 C160.019572,30.6482396 159.953988,30.6489467 159.886289,30.6418755 C159.868659,30.6397541 159.851029,30.6355113 159.834104,30.63339 C159.814358,30.6305615 159.794613,30.6249045 159.775572,30.6213689 C159.700821,30.6100549 159.626775,30.5966195 159.549908,30.5761129 C159.523815,30.5697488 159.497723,30.5619704 159.47163,30.5548992 C159.459642,30.5513636 159.448358,30.5457066 159.43637,30.542171 C159.35104,30.5153003 159.264301,30.4863082 159.175445,30.4488306 C159.156405,30.4417594 159.136659,30.4346881 159.116913,30.4254955 C158.994208,30.3717541 158.870092,30.3102343 158.743861,30.2374005 C157.375064,29.4454216 156.217827,27.7320602 155.832081,26.071733 C155.817977,26.0116274 155.808809,25.9515219 155.796116,25.8914164 M140.68222,16.252609 C140.681514,27.8020654 148.768069,41.8462554 158.743861,47.6206301 C168.718948,53.3957119 176.805503,48.7138438 176.805503,37.1643873 C176.805503,25.6149309 168.718948,11.5707409 158.744566,5.79636623 C148.768775,0.0212844327 140.68222,4.70315251 140.68222,16.252609" id="Fill-76" fill="#F39200"></path>
                    <path d="M154.084025,25.8762132 C155.768049,26.8506301 157.132615,29.2209098 157.132615,31.1711578 C157.132615,33.1206987 155.768049,33.9112633 154.084025,32.9361393 C152.400002,31.9610153 151.035436,29.5907356 151.035436,27.6411947 C151.035436,25.6916538 152.400002,24.9010892 154.084025,25.8762132 M154.084025,50.3186617 C164.059112,56.0930364 172.145667,51.4118755 172.145667,39.862419 C172.145667,28.3122554 164.059817,14.2680654 154.084731,8.49369077 C144.108939,2.71860897 136.023089,7.40047704 136.022384,18.9499335 C136.022384,30.5000971 144.108234,44.5435799 154.084025,50.3186617" id="Fill-78" fill="#F9B233"></path>
                    <path d="M152.436743,25.4867293 C152.911345,25.4032887 153.476917,25.5213784 154.085506,25.8742332 C155.765298,26.8500644 157.13057,29.2217583 157.133391,31.1684707 C157.134096,31.8734734 156.954975,32.4271515 156.646096,32.7976844 C156.105911,33.462381 155.16094,33.559257 154.083391,32.9341594 C152.400073,31.9604496 151.034801,29.5887557 151.035506,27.6399219 C151.036917,26.3953836 151.592616,25.6232042 152.436743,25.4867293 M140.05057,21.2807557 C140.051275,30.2534522 146.334628,41.16579 154.083391,45.6539061 C158.192605,48.0333784 161.884339,48.128133 164.453391,46.3574945 C166.731194,44.7841435 168.119032,41.7428032 168.118327,37.5276369 C168.117622,28.5549404 161.834269,17.6426026 154.085506,13.1551937 C150.445252,11.047257 147.12516,10.7325868 144.627333,11.9233836 C141.813576,13.2690406 140.049865,16.5225182 140.05057,21.2807557" id="Fill-80" fill="#DE8500"></path>
                    <path d="M155.000647,25.3438195 C156.680439,26.3203578 158.046416,28.6913446 158.049237,30.6387641 C158.049942,31.886838 157.493538,32.6590174 156.64941,32.7954923 L156.645884,32.7976137 C156.638832,32.8117562 156.633896,32.8188274 156.625434,32.8294343 C156.077491,33.4637245 155.145214,33.5492865 154.083179,32.9340887 C152.399861,31.9603789 151.03459,29.588685 151.035295,27.6398512 C151.035295,26.4108697 151.57689,25.6471757 152.399156,25.4894871 C152.41185,25.4866586 152.421723,25.4859515 152.436532,25.4866586 L152.440763,25.4845372 C152.980243,24.8198406 153.923803,24.719429 155.000647,25.3438195 M140.965711,20.750342 C140.966416,29.7237456 147.249769,40.6360834 154.998532,45.1234923 C158.638786,47.231429 161.955353,47.5475135 164.453179,46.3574237 C166.730983,44.7840728 168.119526,41.7427325 168.118821,37.5275662 C168.118116,28.5548697 161.834058,17.6425319 154.085295,13.155123 C150.44504,11.0471863 147.124948,10.7325161 144.627121,11.9233129 C142.350023,13.497371 140.965006,16.5351757 140.965711,20.750342" id="Fill-82" fill="#F39200"></path>
                    <path d="M154.08332,32.9343008 C152.400002,31.960591 151.034731,29.5888971 151.035436,27.6400633 C151.035436,26.4103747 151.576326,25.6466807 152.398592,25.4896992 C152.946534,24.8539947 153.876696,24.7656042 154.938731,25.380095 C156.622754,26.3538047 157.98732,28.7262058 157.986615,30.6750396 C157.986615,31.9040211 157.44784,32.6712507 156.624869,32.8296464 C156.077632,33.4639367 155.145355,33.5487916 154.08332,32.9343008 M149.872557,21.1019947 C148.92265,21.8762955 148.34932,23.2467018 148.350025,25.0965383 C148.350731,29.3117045 151.299887,34.4334037 154.940141,36.5413404 C156.536719,37.4669657 158.006361,37.6543536 159.151609,37.2166438 C160.6008,36.6566016 161.528846,35.0867863 161.527436,32.7278206 C161.527436,28.5126544 158.577575,23.3909551 154.938025,21.2830185 C152.900696,20.1028285 151.081274,20.122628 149.872557,21.1019947" id="Fill-84" fill="#DE8500"></path>
                    <path d="M154.08332,32.9343008 C152.400002,31.960591 151.034731,29.5888971 151.035436,27.6400633 C151.035436,26.4103747 151.576326,25.6466807 152.398592,25.4896992 C152.411991,25.4868707 152.421864,25.4861636 152.436673,25.4868707 L152.440904,25.4847493 C152.9148,25.4013087 153.479667,25.5243483 154.085436,25.8743747 C155.765228,26.8502058 157.130499,29.2218997 157.13332,31.1686121 C157.134025,31.8736148 156.959135,32.4251715 156.649551,32.7957045 L156.646025,32.7978259 C156.638973,32.8112612 156.634037,32.8190396 156.624869,32.8296464 C156.077632,33.4639367 155.145355,33.5487916 154.08332,32.9343008 M147.496731,25.5908179 C147.497436,29.805277 150.446592,34.9269763 154.086846,37.0356201 C156.123471,38.21581 157.942892,38.1953034 159.151609,37.2166438 C160.101517,36.4416359 160.675551,35.0712296 160.674141,33.2213931 C160.673436,29.0062269 157.72428,23.8845277 154.084731,21.7772982 C152.486742,20.8509657 151.017101,20.664285 149.872557,21.1019947 C148.423366,21.6620369 147.49532,23.2311451 147.496731,25.5908179" id="Fill-86" fill="#F9B233"></path>
                    <polygon id="Fill-88" fill="#F39200" points="136.210884 10.1786259 161.754017 54.5400507 166.411879 51.8437868 140.869451 7.48165488"></polygon>
                    <path d="M150.69299,28.8455683 C150.679591,28.7783916 150.664782,28.7112148 150.653498,28.6447451 C150.640805,28.5634259 150.633047,28.4821066 150.62388,28.4014945 C150.618943,28.3569456 150.611891,28.3116897 150.60766,28.2671409 C150.601313,28.1943071 150.601313,28.1221805 150.598492,28.0493467 C150.596377,27.9991409 150.59144,27.9468137 150.59144,27.8966079 C150.59144,27.8951937 150.592146,27.8937794 150.592146,27.8923652 C150.592146,27.7516475 150.601313,27.6180011 150.616123,27.4893045 C150.619649,27.4532412 150.625995,27.4185921 150.630932,27.383943 C150.644331,27.2898955 150.661255,27.1986765 150.681706,27.1124074 C150.690169,27.0784654 150.698631,27.0445235 150.707799,27.0105815 C150.733891,26.9186554 150.764215,26.830972 150.798065,26.7475314 C150.805822,26.7305604 150.811464,26.7114681 150.819221,26.6944971 C150.823452,26.6845974 150.829094,26.676819 150.83403,26.6662121 C150.876342,26.5749931 150.921475,26.4873098 150.97366,26.4095261 C150.975071,26.4074047 150.976481,26.4059905 150.977891,26.4038691 C150.988469,26.3883124 151.001163,26.3762913 151.011741,26.3614417 C151.059695,26.2956792 151.109059,26.232038 151.164065,26.1761752 C151.176053,26.163447 151.188747,26.1514259 151.200735,26.1401119 C151.207082,26.1337478 151.214839,26.1280908 151.221186,26.1224338 C151.278308,26.0693995 151.337545,26.0191937 151.401013,25.9760591 C151.409475,25.9711092 151.417232,25.9654522 151.42499,25.9597953 C151.434157,25.9541383 151.44262,25.9513098 151.451082,25.9456528 C151.527244,25.8989826 151.606227,25.8565551 151.690146,25.8247346 L151.694377,25.8240274 C151.79099,25.787257 151.889718,25.7603863 151.994088,25.7434153 C152.10551,25.7236158 152.222573,25.7172517 152.343868,25.7207873 C152.356562,25.7207873 152.369255,25.7207873 152.382654,25.7214945 C152.501128,25.7271515 152.624539,25.7427082 152.751475,25.7709931 C152.777568,25.7766501 152.80366,25.7865499 152.829047,25.7936211 C152.867128,25.8028137 152.90662,25.8183704 152.943995,25.8296844 C153.002527,25.8480697 153.061059,25.8636264 153.121001,25.8862544 C153.16825,25.9046396 153.214793,25.9223177 153.262747,25.9435314 C153.355834,25.9838375 153.452446,26.0319219 153.549764,26.0849562 C153.580088,26.1019272 153.610412,26.1146554 153.64144,26.1323335 C154.090654,26.3932623 154.516597,26.7553098 154.901637,27.1809984 C155.733071,28.1030881 156.364932,29.328534 156.593417,30.5073098 C156.654065,30.8191515 156.69003,31.1288718 156.69003,31.4272781 C156.69003,31.4392992 156.68862,31.4506132 156.687914,31.4619272 C156.687209,31.6019377 156.677336,31.734877 156.662527,31.8628665 C156.656886,31.9060011 156.650539,31.9484285 156.643487,31.9908559 C156.625857,32.10541 156.602585,32.2157214 156.572966,32.3182544 C156.567325,32.3373467 156.563799,32.3585604 156.558157,32.3769456 C156.519371,32.5013995 156.472123,32.6159536 156.417822,32.7220222 C156.410065,32.7375789 156.401602,32.7517214 156.39314,32.7672781 C156.336724,32.8712253 156.273961,32.9688084 156.20203,33.0536633 C156.137857,33.1342755 156.065221,33.205695 155.989059,33.2693361 C155.986238,33.2721646 155.983417,33.2749931 155.980597,33.2771145 C155.915718,33.3301488 155.845903,33.3718691 155.773972,33.4128823 C155.761279,33.4199536 155.750701,33.4284391 155.738007,33.4348032 C155.721787,33.4432887 155.704862,33.4503599 155.688643,33.4581383 C155.639279,33.4821805 155.586388,33.4991515 155.534203,33.5168296 C155.511637,33.525315 155.490481,33.5352148 155.467209,33.542286 C155.446053,33.547943 155.425602,33.5543071 155.404446,33.5599641 C155.361429,33.570571 155.315591,33.5748137 155.270458,33.581885 C155.217568,33.5903704 155.166088,33.6030987 155.111082,33.6052201 C155.069475,33.6080485 155.025753,33.6030987 154.982735,33.6030987 C154.916446,33.6023916 154.851568,33.6038058 154.783163,33.5960274 C154.765533,33.5939061 154.748608,33.5896633 154.731683,33.587542 C154.711938,33.5847135 154.691487,33.5790565 154.672446,33.5755208 C154.597695,33.5642069 154.523649,33.5507715 154.446782,33.530972 C154.420689,33.5239008 154.394597,33.5161224 154.368504,33.5090512 C154.357221,33.5055156 154.345232,33.4998586 154.333244,33.496323 C154.247914,33.4694522 154.161175,33.439753 154.072319,33.4029826 C154.053279,33.3952042 154.033533,33.3888401 154.013787,33.3796475 C153.891787,33.3259061 153.766966,33.2643863 153.640735,33.1915525 C152.272643,32.3995736 151.114701,30.6862121 150.728955,29.025885 C150.714851,28.9657794 150.705683,28.9056739 150.69299,28.8455683 M135.579094,19.2067609 C135.579094,30.7562174 143.665649,44.8004074 153.640735,50.5747821 C163.615822,56.3498639 171.702377,51.6679958 171.702377,40.1185393 C171.703082,28.5683757 163.616527,14.5248929 153.64144,8.75051821 C143.665649,2.97543641 135.579094,7.65730449 135.579094,19.2067609" id="Fill-90" fill="#F39200"></path>
                    <path d="M148.98097,28.8303652 C150.664993,29.8054892 152.02956,32.1750617 152.02956,34.1253098 C152.02956,36.0748507 150.664993,36.8647082 148.98097,35.8902913 C147.296947,34.9151673 145.93238,32.5448876 145.93238,30.5953467 C145.93238,28.6450987 147.296947,27.8552412 148.98097,28.8303652 M148.98097,53.2721066 C158.956057,59.0471884 167.042612,54.3660274 167.042612,42.8158639 C167.042612,31.2664074 158.956762,17.2222174 148.981675,11.4478427 C139.005883,5.67276095 130.920034,10.354629 130.919328,21.9047926 C130.919328,33.453542 139.005178,47.4977319 148.98097,53.2721066" id="Fill-92" fill="#F9B233"></path>
                    <path d="M147.333688,28.440952 C147.808289,28.3575113 148.374566,28.4756011 148.982451,28.8284559 C150.662948,29.8042871 152.02822,32.175981 152.03104,34.1226934 C152.031746,34.827696 151.852624,35.3813741 151.54304,35.7519071 C151.003561,36.4166037 150.057884,36.5134797 148.980335,35.8883821 C147.297017,34.9146723 145.931746,32.5429784 145.932451,30.5941446 C145.933861,29.3496063 146.490266,28.5774269 147.333688,28.440952 M134.947514,24.2349784 C134.948925,33.2076749 141.231572,44.1200127 148.980335,48.6081288 C153.089549,50.9876011 156.781283,51.0823557 159.350335,49.3117172 C161.628139,47.7383662 163.015977,44.6970259 163.015977,40.4818596 C163.014566,31.5091631 156.731919,20.5968253 148.982451,16.1094164 C145.342902,14.0014797 142.022104,13.6868095 139.524277,14.8783135 C136.711225,16.2232633 134.946809,19.4767409 134.947514,24.2349784" id="Fill-94" fill="#DE8500"></path>
                    <path d="M149.897592,28.2986786 C151.578089,29.2745098 152.943361,31.6462037 152.946182,33.5929161 C152.946887,34.84099 152.391187,35.6131694 151.546355,35.7496443 L151.542829,35.7517657 C151.535777,35.7652011 151.53084,35.7729794 151.522378,35.7828792 C150.975141,36.4178765 150.042158,36.5034385 148.980124,35.8882406 C147.296806,34.9145309 145.931534,32.5428369 145.932239,30.5940032 C145.932945,29.3650216 146.47454,28.6013277 147.296806,28.4436391 C147.309499,28.4408106 147.318667,28.4401034 147.333476,28.4408106 L147.337708,28.4386892 C147.877892,27.7739926 148.820748,27.673581 149.897592,28.2986786 M135.862655,23.7052011 C135.864066,32.6778976 142.146713,43.5902354 149.895476,48.0776443 C153.535731,50.1848739 156.853002,50.5023726 159.350124,49.3115757 C161.627927,47.7382248 163.016471,44.6968844 163.016471,40.4817182 C163.01506,31.5090216 156.731708,20.5966839 148.982239,16.1092749 C145.34269,14.0013383 142.021892,13.6866681 139.524066,14.878172 C137.246968,16.4508158 135.862655,19.4900348 135.862655,23.7052011" id="Fill-96" fill="#F39200"></path>
                    <path d="M148.980265,35.8885235 C147.296947,34.9148137 145.931675,32.5431198 145.93238,30.594286 C145.933086,29.3645974 146.473976,28.6009034 147.296242,28.4439219 C147.843479,27.8082174 148.774346,27.7198269 149.835675,28.3343177 C151.519698,29.3080274 152.88497,31.6797214 152.884265,33.6292623 C152.88356,34.8575367 152.344785,35.6254734 151.521814,35.783162 C150.975282,36.4181594 150.042299,36.5030142 148.980265,35.8885235 M144.769502,24.0562174 C143.820299,24.8305182 143.246265,26.2009245 143.24697,28.0507609 C143.247675,32.2659272 146.196831,37.3876264 149.837086,39.4955631 C151.433664,40.4211884 152.90401,40.6085763 154.048554,40.1708665 C155.49845,39.6108243 156.425791,38.041009 156.42438,35.6820433 C156.42438,31.466877 153.474519,26.3451778 149.83497,24.2372412 C147.79764,23.0570512 145.978218,23.0768507 144.769502,24.0562174" id="Fill-98" fill="#DE8500"></path>
                    <path d="M148.980265,35.8885235 C147.296947,34.9148137 145.931675,32.5431198 145.93238,30.594286 C145.933086,29.3645974 146.473976,28.6009034 147.296242,28.4439219 C147.30964,28.4410934 147.318808,28.4403863 147.333617,28.4410934 L147.337849,28.438972 C147.811745,28.3555314 148.376612,28.478571 148.98238,28.8285974 C150.662877,29.8044285 152.028149,32.1761224 152.03097,34.1228348 C152.031675,34.8278375 151.85608,35.3793942 151.546496,35.7499272 L151.54297,35.7520485 C151.535918,35.7647768 151.530982,35.7732623 151.521814,35.783162 C150.975282,36.4181594 150.042299,36.5030142 148.980265,35.8885235 M142.393675,28.5443335 C142.39438,32.7594997 145.343536,37.8811989 148.983791,39.9898427 C151.02112,41.1700327 152.839837,41.1495261 154.048554,40.1708665 C154.998461,39.3958586 155.572496,38.0254522 155.571086,36.1756158 C155.571086,31.9604496 152.621929,26.8387504 148.981675,24.7315208 C147.383687,23.8051884 145.914045,23.6178005 144.769502,24.0562174 C143.320311,24.6162596 142.39297,26.1853678 142.393675,28.5443335" id="Fill-100" fill="#F9B233"></path>
                    <polygon id="Fill-102" fill="#9D9D9C" points="144.362741 28.004515 150.432417 38.5463198 152.165099 37.5436179 146.095423 27.0011061"></polygon>
                    <path d="M144.837906,29.7874575 C144.837906,27.0431092 146.760288,25.9308032 149.130473,27.3026237 C151.500658,28.6751515 153.422334,32.0120697 153.422334,34.7571251 C153.422334,37.5014734 151.500658,38.6137794 149.130473,37.2419588 C146.760288,35.8701383 144.837906,32.5325129 144.837906,29.7874575" id="Fill-104" fill="#1E8CB2"></path>
                    <path d="M143.105859,30.7901594 C143.105859,28.0458111 145.027535,26.933505 147.39772,28.3053256 C149.767905,29.6778533 151.690287,33.0147715 151.689582,35.7598269 C151.689582,38.5048823 149.767905,39.6171884 147.39772,38.2446607 C145.027535,36.8728401 143.105859,33.5352148 143.105859,30.7901594" id="Fill-106" fill="#34A2C8"></path>
                    <path d="M145.545154,32.2755441 C145.545154,31.5535704 145.863905,31.1045467 146.346969,31.0119135 C146.354021,31.0104992 146.359662,31.0097921 146.36883,31.0104992 L146.370946,31.009085 C146.649501,30.9602934 146.980946,31.0324201 147.337073,31.237486 C148.324356,31.8116707 149.126876,33.2039979 149.128287,34.3488317 C149.128287,34.7624992 149.026032,35.0870691 148.84409,35.3034491 L148.841975,35.3048633 C148.837743,35.3133488 148.834217,35.3182987 148.829281,35.3239557 C148.507709,35.6973172 147.959766,35.7468158 147.336368,35.3854755 C146.347674,34.8134121 145.545154,33.4196707 145.545154,32.2755441" id="Fill-108" fill="url(#linearGradient-10)"></path>
                    <polygon id="Fill-110" fill="url(#linearGradient-11)" points="146.061644 31.1189013 148.594731 35.5172127 42.1444416 97.1437773 39.6113549 92.7447588"></polygon>
                    <path d="M39.087178,93.9064929 C39.087178,93.1845193 39.4052243,92.7362026 39.8882879,92.6435694 C39.8953399,92.641448 39.9009815,92.641448 39.9101491,92.6421551 L39.9122647,92.6407409 C40.1908197,92.5919493 40.5222647,92.664076 40.8790971,92.869142 C41.8649699,93.4426195 42.6681954,94.8356538 42.6696058,95.9797805 C42.6696058,96.3941551 42.5673514,96.7180179 42.3854092,96.935105 L42.3832936,96.9365193 C42.3790624,96.9442976 42.3762416,96.9492475 42.3706,96.9556116 C42.0490277,97.328266 41.5017908,97.3777646 40.8776867,97.0164243 C39.8889931,96.4450681 39.0864728,95.0513266 39.087178,93.9064929" id="Fill-112" fill="#B2B2B2"></path>
                    <polygon id="Fill-114" fill="#F39200" points="19.8517977 77.5418755 45.3949306 121.9033 50.0527919 119.207036 24.509659 74.8456116"></polygon>
                    <path d="M34.3339029,96.2088179 C34.320504,96.1416412 34.3049896,96.0744644 34.2944116,96.0072876 C34.2817179,95.9259683 34.2739607,95.8453562 34.2640879,95.7647441 C34.2598566,95.7201953 34.2520994,95.6742322 34.2485734,95.6303905 C34.2422266,95.5568496 34.2415214,95.4854301 34.2387006,95.4125963 C34.2372902,95.3623905 34.2323538,95.3100633 34.2323538,95.2598575 L34.2323538,95.257029 C34.233059,95.11419 34.2422266,94.9812507 34.2570358,94.8525541 C34.2605618,94.8157836 34.2662035,94.7818417 34.2711399,94.7471926 C34.2852439,94.6531451 34.3014636,94.5626332 34.3219145,94.475657 C34.3303769,94.441715 34.3388393,94.407066 34.3487121,94.3745383 C34.3748046,94.281905 34.4051283,94.1942216 34.438978,94.110781 C34.4460301,94.09381 34.4523769,94.0747177 34.4601341,94.0584538 C34.4643653,94.047847 34.4700069,94.0400686 34.4742382,94.0301689 C34.5172555,93.9382427 34.5623884,93.8512665 34.6145734,93.7720686 C34.6159838,93.7706544 34.6173942,93.7692401 34.6180994,93.7671187 C34.6293827,93.751562 34.6420763,93.7395409 34.6526543,93.7239842 C34.7006081,93.6589288 34.7499723,93.5952876 34.8042728,93.5394248 C34.8162613,93.5266966 34.8289549,93.5146755 34.8416486,93.5033615 C34.8479954,93.4969974 34.8550474,93.4920475 34.8620994,93.4856834 C34.9192208,93.4326491 34.9784578,93.3824433 35.041926,93.3393087 C35.0503884,93.3343588 35.0574405,93.3279947 35.0659029,93.3230449 C35.0743653,93.3173879 35.0828277,93.3138522 35.0912902,93.3089024 C35.1681572,93.2622322 35.2464347,93.2198047 35.331059,93.1879842 L35.334585,93.1865699 C35.4319029,93.1505066 35.529926,93.1236359 35.634296,93.1066649 C35.7457179,93.0868654 35.8634867,93.0805013 35.9847815,93.0840369 C35.9974751,93.0840369 36.0101688,93.0840369 36.0235676,93.0847441 C36.1420416,93.0896939 36.265452,93.1059578 36.3923884,93.1342427 C36.4177757,93.1398997 36.4438682,93.1497995 36.4699607,93.1568707 C36.5073364,93.1653562 36.5468277,93.1816201 36.5842035,93.192934 C36.6434405,93.2113193 36.7019723,93.226876 36.7619145,93.249504 C36.809163,93.2678892 36.8550012,93.2855673 36.9029549,93.306781 C36.9967468,93.3470871 37.0926543,93.3951715 37.1899723,93.4482058 C37.2210012,93.4644697 37.2506197,93.477905 37.2816486,93.4955831 C37.7315676,93.7558047 38.1575098,94.1185594 38.5425503,94.544248 C39.3739838,95.4663377 40.0051399,96.6917836 40.2343306,97.8705594 C40.294978,98.1824011 40.3302382,98.4921214 40.3302382,98.7905277 C40.3302382,98.8032559 40.3288277,98.8138628 40.3288277,98.8251768 C40.3274173,98.9651873 40.3175445,99.0981266 40.3027353,99.2261161 C40.2977988,99.2692507 40.2907468,99.3123852 40.2844,99.3533984 C40.2660647,99.4679525 40.2427931,99.578971 40.2138798,99.681504 C40.2082382,99.7005963 40.2040069,99.72181 40.1983653,99.7401953 C40.1602844,99.863942 40.1123306,99.9792032 40.0587353,100.084565 C40.0502728,100.100828 40.0418104,100.114971 40.0340532,100.130528 C39.9769318,100.234475 39.914874,100.332058 39.8429434,100.416913 C39.7780647,100.497525 39.7061341,100.568945 39.6292671,100.632586 C39.6264462,100.635414 39.6243306,100.638243 39.6215098,100.641071 C39.5566312,100.693398 39.4868162,100.735119 39.4141803,100.775425 C39.4021919,100.782496 39.3909087,100.790982 39.378215,100.798053 C39.3627006,100.806538 39.3450705,100.814317 39.3288509,100.821388 C39.2801919,100.84543 39.2273017,100.862401 39.1751168,100.880079 C39.1525503,100.887858 39.130689,100.898464 39.1074173,100.905536 C39.0862613,100.910485 39.0665156,100.918264 39.0453595,100.923214 C39.001637,100.933821 38.956504,100.937356 38.9113711,100.944427 C38.8584809,100.95362 38.8070012,100.966348 38.7512902,100.96847 C38.7103884,100.971298 38.6659607,100.966348 38.6236486,100.966348 C38.5573595,100.965641 38.4917757,100.966348 38.4240763,100.959277 C38.4064462,100.957156 38.3888162,100.952913 38.3718913,100.950792 C38.3521457,100.947963 38.3324,100.942306 38.3126543,100.93877 C38.2386081,100.926749 38.1645618,100.914021 38.0876948,100.893515 C38.0616023,100.88715 38.0355098,100.879372 38.0094173,100.872301 C37.9974289,100.868765 37.9861457,100.863108 37.9741572,100.859573 C37.8881225,100.832702 37.8020879,100.803003 37.7132324,100.766232 C37.6941919,100.759161 37.6744462,100.75209 37.6547006,100.742897 C37.5319954,100.689156 37.4071746,100.627636 37.2816486,100.554802 C35.9128509,99.7628232 34.7556139,98.0494617 34.3698682,96.3891346 C34.355059,96.329029 34.3458913,96.2689235 34.3339029,96.2088179 M19.2200069,86.5700106 C19.2193017,98.119467 27.3058566,112.163657 37.2816486,117.938032 C47.2567353,123.713113 55.3432902,119.031245 55.3432902,107.481789 C55.3432902,95.9323325 47.2567353,81.8881425 37.2816486,76.1137678 C27.3065618,70.338686 19.2200069,75.019847 19.2200069,86.5700106" id="Fill-116" fill="#F39200"></path>
                    <path d="M32.6218832,96.1929077 C34.3059064,97.1680317 35.6704728,99.5383113 35.6704728,101.488559 C35.6704728,103.4381 34.3059064,104.228665 32.6218832,103.253541 C30.9378601,102.278417 29.5732936,99.9081372 29.5732936,97.9585963 C29.5732936,96.0090554 30.9378601,95.2184908 32.6218832,96.1929077 M32.6218832,120.636063 C42.5969699,126.410438 50.6835249,121.729277 50.6835249,110.179113 C50.6835249,98.629657 42.5976751,84.585467 32.6218832,78.8110923 C22.6467965,73.0367177 14.5602416,77.7178786 14.5602416,89.2673351 C14.5602416,100.817499 22.6460913,114.860982 32.6218832,120.636063" id="Fill-118" fill="#F9B233"></path>
                    <path d="M30.9746012,95.8041309 C31.4492023,95.7206902 32.0147746,95.8387799 32.6233642,96.1916348 C34.3031561,97.167466 35.6684277,99.5391599 35.6712486,101.485872 C35.6719538,102.190168 35.4928324,102.744553 35.1839538,103.114379 C34.6437688,103.779075 33.6987977,103.876659 32.6212486,103.251561 C30.9379306,102.277851 29.5719538,99.9061573 29.5733642,97.9573235 C29.5747746,96.7127852 30.130474,95.9406058 30.9746012,95.8041309 M18.5884277,91.5981573 C18.5891329,100.570854 24.8724855,111.483192 32.6212486,115.971308 C36.7304624,118.35078 40.4221965,118.445535 42.9912486,116.674896 C45.269052,115.100838 46.6568902,112.060205 46.656185,107.845039 C46.6554798,98.872342 40.3721272,87.9600042 32.6233642,83.4725953 C28.9831098,81.3646586 25.6630173,81.0499884 23.1651908,82.2407852 C20.3514335,83.5864422 18.5877225,86.8392127 18.5884277,91.5981573" id="Fill-120" fill="#DE8500"></path>
                    <path d="M33.5385052,95.6612211 C35.2182971,96.6370522 36.5835688,99.0087462 36.5863896,100.956166 C36.5878,102.203532 36.0313954,102.976419 35.1872682,103.112894 L35.1837422,103.114308 C35.1766902,103.129158 35.1717538,103.136229 35.1632913,103.146129 C34.6153491,103.781126 33.6830717,103.866688 32.621037,103.25149 C30.9377191,102.27778 29.5717422,99.9060865 29.5731526,97.9572528 C29.5731526,96.7282712 30.114748,95.9645773 30.9370139,95.8068887 C30.9497075,95.8040602 30.9595803,95.803353 30.9743896,95.8040602 L30.9779156,95.8019388 C31.5181006,95.1372422 32.4616613,95.0368306 33.5385052,95.6612211 M19.5035688,91.0677435 C19.504274,100.04044 25.7876266,110.953485 33.5363896,115.440894 C37.1766439,117.548831 40.4932104,117.864915 42.991037,116.674825 C45.2688405,115.100767 46.6573838,112.060134 46.6566786,107.844968 C46.6559734,98.8722712 40.3719156,87.9599335 32.6231526,83.4725245 C28.9828983,81.3645879 25.6628058,81.0499177 23.1649792,82.2407145 C20.8878809,83.8140654 19.5028636,86.8532844 19.5035688,91.0677435" id="Fill-122" fill="#F39200"></path>
                    <path d="M32.621178,103.251773 C30.9378601,102.278063 29.5718832,99.9063694 29.5732936,97.9575356 C29.5732936,96.727847 30.1141838,95.964153 30.9364497,95.8071715 C31.4843919,95.171467 32.4145538,95.0830765 33.4758832,95.6975673 C35.1599064,96.671277 36.525178,99.0436781 36.5244728,100.992512 C36.5244728,102.221493 35.9856983,102.988723 35.1627272,103.146412 C34.6154902,103.781409 33.6832127,103.866264 32.621178,103.251773 M28.410415,91.419467 C27.4605075,92.1937678 26.8864728,93.5641741 26.8878832,95.4140106 C26.8885884,99.6291768 29.8377445,104.750876 33.4779988,106.858813 C35.0745769,107.784438 36.5442185,107.971826 37.6894671,107.534116 C39.1386578,106.974074 40.066704,105.404259 40.0652936,103.045293 C40.0652936,98.8301266 37.1154324,93.7084274 33.475178,91.5997836 C31.4385538,90.4203008 29.6191318,90.4401003 28.410415,91.419467" id="Fill-124" fill="#DE8500"></path>
                    <path d="M32.621178,103.251773 C30.9378601,102.278063 29.5718832,99.9063694 29.5732936,97.9575356 C29.5732936,96.727847 30.1141838,95.964153 30.9364497,95.8071715 C30.9498486,95.804343 30.9597214,95.8036359 30.9745306,95.804343 L30.9780566,95.8022216 C31.4526578,95.718781 32.0175249,95.8418206 32.6232936,96.191847 C34.3030855,97.1676781 35.6683572,99.539372 35.671178,101.486084 C35.6718832,102.19038 35.4969931,102.742644 35.1874092,103.113177 L35.1838832,103.114591 C35.1768312,103.128734 35.1718948,103.136512 35.1627272,103.146412 C34.6154902,103.781409 33.6832127,103.866264 32.621178,103.251773 M26.0345884,95.9075831 C26.0345884,100.122749 28.9844497,105.244449 32.6239988,107.353092 C34.6613283,108.533282 36.4807503,108.512776 37.6894671,107.534116 C38.6393746,106.759108 39.212704,105.388702 39.2119988,103.538865 C39.2112936,99.3236992 36.2621376,94.202 32.6218832,92.0947704 C31.0246,91.168438 29.5549584,90.9810501 28.410415,91.419467 C26.9612243,91.9795092 26.033178,93.5486174 26.0345884,95.9075831" id="Fill-126" fill="#F9B233"></path>
                    <polygon id="Fill-128" fill="#F39200" points="14.5124994 80.6327145 40.0556324 124.994139 44.7134936 122.297875 19.1710659 77.9357435"></polygon>
                    <path d="M28.9953098,99.2997277 C28.9812058,99.2325509 28.9663965,99.1653741 28.9551133,99.0981974 C28.9424197,99.0175852 28.9346624,98.936266 28.9254948,98.8556538 C28.9212636,98.811105 28.9135064,98.7658491 28.9092751,98.7213003 C28.9029283,98.6477594 28.9022231,98.5763398 28.9001075,98.5035061 C28.8979919,98.4533003 28.8937607,98.4009731 28.8937607,98.3507673 L28.8937607,98.3465245 C28.8937607,98.2050997 28.9029283,98.0721604 28.9177376,97.9434639 C28.9219688,97.9066934 28.9269052,97.8727515 28.9325468,97.8381024 C28.9459457,97.7440549 28.9628705,97.6528359 28.9833214,97.5665668 C28.9917838,97.5319177 29.0002462,97.4979757 29.0094139,97.4647409 C29.0355064,97.3721077 29.0658301,97.2851314 29.0996798,97.2016908 C29.107437,97.1847198 29.1130786,97.1656274 29.1208358,97.1486565 C29.1250671,97.1387567 29.1307087,97.1309784 29.1356451,97.1203715 C29.1779572,97.0291525 29.2237954,96.9414691 29.2759803,96.8629784 C29.2766855,96.8615641 29.278096,96.8594427 29.2795064,96.8580285 C29.2900844,96.8424718 29.3034832,96.8304507 29.3133561,96.8148939 C29.3613098,96.7498385 29.410674,96.6861974 29.4649746,96.6303346 C29.4776682,96.6168992 29.4903618,96.6055852 29.5030555,96.5942712 C29.5094023,96.5872 29.5164543,96.5822501 29.5228012,96.5765931 C29.5799225,96.5235588 29.6391595,96.473353 29.7033329,96.4302185 C29.7110902,96.4252686 29.7188474,96.4196116 29.7273098,96.4139546 C29.7350671,96.4082976 29.7442347,96.404762 29.7526971,96.3998121 C29.828859,96.353142 29.9078416,96.3107145 29.9917607,96.2788939 C29.9938763,96.2781868 29.9959919,96.2781868 29.9959919,96.2781868 C30.0926046,96.2414164 30.1913329,96.2145456 30.2957029,96.1975747 C30.4071249,96.1777752 30.5248936,96.1714111 30.6454832,96.1749467 L30.6842694,96.1749467 C30.8027434,96.1806037 30.9261538,96.1968675 31.0530902,96.2251525 C31.0791827,96.2308095 31.1052751,96.2407092 31.1313676,96.2477805 C31.1687434,96.256266 31.2082347,96.2725298 31.2456104,96.2831367 C31.3041422,96.3015219 31.362674,96.3177858 31.4226162,96.3404137 C31.4698647,96.3587989 31.5164081,96.376477 31.5643618,96.3976908 C31.6581538,96.4379968 31.7540613,96.4860813 31.8513792,96.5391156 C31.8817029,96.5553794 31.9120266,96.5688148 31.9430555,96.5864929 C32.3929746,96.8467145 32.8189168,97.2094691 33.203252,97.6351578 C34.0353908,98.5572475 34.6665468,99.7826934 34.8950324,100.960762 C34.9556798,101.273311 34.9916451,101.583031 34.9916451,101.881437 C34.9916451,101.893459 34.9902347,101.904773 34.9902347,101.916087 C34.9888243,102.056097 34.9789514,102.189036 34.9641422,102.317026 C34.9592058,102.36016 34.9521538,102.402588 34.9458069,102.444308 C34.9274717,102.558862 34.9042,102.669174 34.8745815,102.772414 C34.8689399,102.791506 34.8654139,102.812013 34.8597723,102.831105 C34.8216913,102.955559 34.7737376,103.070113 34.719437,103.176182 C34.7116798,103.191738 34.7032173,103.205881 34.6947549,103.221437 C34.6383387,103.325385 34.5755757,103.422968 34.5043503,103.507823 C34.4394717,103.588435 34.367541,103.659854 34.290674,103.723496 C34.2878532,103.725617 34.2850324,103.729153 34.2822116,103.731274 C34.2180382,103.783601 34.1475179,103.826028 34.0755873,103.866335 C34.0635988,103.873406 34.0523156,103.881891 34.039622,103.888963 C34.0234023,103.897448 34.0064775,103.904519 33.9902578,103.911591 C33.9408936,103.93634 33.8880035,103.953311 33.8365237,103.970989 C33.813252,103.979474 33.792096,103.989374 33.7688243,103.996445 C33.7476682,104.002102 33.7272173,104.008466 33.7060613,104.014123 C33.6630439,104.02473 33.6172058,104.028266 33.572778,104.036044 C33.5191827,104.04453 33.4677029,104.057258 33.4126971,104.059379 C33.3710902,104.062208 33.3273676,104.057258 33.2843503,104.057258 C33.2180613,104.055844 33.1531827,104.057258 33.084778,104.050187 C33.0678532,104.048065 33.0502231,104.043823 33.0332983,104.040994 C33.0135526,104.038873 32.9931017,104.033216 32.9740613,104.02968 C32.8993098,104.018366 32.8252636,104.004931 32.7483965,103.984424 C32.722304,103.977353 32.6962116,103.970282 32.6701191,103.963211 C32.6588358,103.959675 32.6468474,103.954018 32.634859,103.950482 C32.5495295,103.923612 32.4627896,103.893912 32.3739341,103.857142 C32.3548936,103.849364 32.335148,103.842999 32.3161075,103.833807 C32.1934023,103.780065 32.0685815,103.718546 31.9423503,103.645712 C30.5742578,102.853733 29.4163156,101.140372 29.0305699,99.4800443 C29.0164659,99.4192317 29.0072983,99.3598332 28.9953098,99.2997277 M13.8807087,89.6602132 C13.8807087,101.210377 21.9672636,115.254567 31.9423503,121.028941 C41.917437,126.804023 50.0039919,122.122155 50.0046971,110.572699 C50.0046971,99.0225351 41.9181422,84.9790522 31.9430555,79.2039704 C21.9679688,73.4295958 13.8807087,78.1107567 13.8807087,89.6602132" id="Fill-130" fill="#F39200"></path>
                    <path d="M27.2832902,99.2838174 C28.9673133,100.258941 30.3318798,102.629221 30.3318798,104.578762 C30.3318798,106.52901 28.9666081,107.318868 27.282585,106.344451 C25.5985618,105.369327 24.2339954,102.999047 24.2339954,101.048799 C24.2339954,99.099258 25.5985618,98.3094005 27.2832902,99.2838174 M27.282585,123.726266 C37.2583769,129.501348 45.3442266,124.820187 45.3442266,113.270023 C45.3442266,101.720567 37.2583769,87.6763768 27.2832902,81.9020021 C17.3074983,76.1269203 9.22164855,80.8087884 9.22164855,92.3582449 C9.22094335,103.907701 17.3074983,117.951891 27.282585,123.726266" id="Fill-132" fill="#F9B233"></path>
                    <path d="M25.6360081,98.8950406 C26.109904,98.8116 26.6761815,98.9296897 27.2840659,99.2825446 C28.964563,100.258376 30.3298347,102.63007 30.3326555,104.576782 C30.3326555,105.281078 30.1542393,105.835463 29.8446555,106.205996 C29.3044705,106.870692 28.3594994,106.967568 27.2826555,106.342471 C25.5986324,105.368761 24.2333607,102.997067 24.2340659,101.048233 C24.2354763,99.803695 24.7918809,99.0308084 25.6360081,98.8950406 M13.2491295,94.689067 C13.2505399,103.661764 19.5331873,114.574101 27.2819503,119.06151 C31.3911642,121.440983 35.0828983,121.536444 37.6519503,119.765099 C39.9297538,118.192455 41.3175919,115.150407 41.3175919,110.935948 C41.3168867,101.963252 35.0335341,91.0502069 27.2840659,86.563505 C23.6445168,84.4555683 20.3237191,84.1408982 17.8265977,85.331695 C15.0128405,86.677352 13.2484243,89.9308296 13.2491295,94.689067" id="Fill-134" fill="#DE8500"></path>
                    <path d="M28.1992069,98.7521309 C29.879704,99.727962 31.2449757,102.099656 31.2477965,104.046368 C31.2485017,105.295149 30.6928023,106.067329 29.8486751,106.203097 L29.8444439,106.205925 C29.8380971,106.21936 29.8324555,106.227139 29.8239931,106.237039 C29.2760509,106.872036 28.3437734,106.957598 27.2824439,106.3424 C25.5984208,105.36869 24.2331491,102.996996 24.2338543,101.048163 C24.2345595,99.819181 24.7761549,99.0554871 25.5984208,98.8970913 C25.6111145,98.8949699 25.6209873,98.8942628 25.6357965,98.8949699 L25.6393225,98.8928485 C26.1795075,98.228152 27.122363,98.1277404 28.1992069,98.7521309 M14.1642705,94.1593604 C14.1656809,103.132057 20.4483283,114.044395 28.1977965,118.531804 C31.8373457,120.639033 35.1546173,120.956532 37.6517387,119.765028 C39.9295422,118.192384 41.3180855,115.150337 41.3180855,110.935878 C41.3173803,101.963181 35.0333225,91.0501361 27.2838543,86.5634343 C23.6443052,84.4554976 20.3235075,84.1408274 17.8263861,85.3316243 C15.5485827,86.9049752 14.1642705,89.9441942 14.1642705,94.1593604" id="Fill-136" fill="#F39200"></path>
                    <path d="M27.282585,106.342683 C25.5985618,105.368973 24.2332902,102.997279 24.2339954,101.048445 C24.2347006,99.8187567 24.7755908,99.0550628 25.5978566,98.8973741 C26.1450936,98.2623768 27.0752555,98.1739863 28.1372902,98.788477 C29.8213133,99.7614797 31.186585,102.133881 31.1858798,104.083422 C31.1851746,105.311696 30.6464,106.079633 29.8241341,106.237321 C29.2761919,106.872319 28.3439145,106.957174 27.282585,106.342683 M23.0711168,94.5096697 C22.1219145,95.2846776 21.5478798,96.6550839 21.548585,98.5049203 C21.5492902,102.720087 24.4984462,107.841786 28.1387006,109.949722 C29.7359838,110.875348 31.2056254,111.062028 32.350874,110.625026 C33.8000647,110.064984 34.7274058,108.495168 34.7267006,106.136203 C34.7259954,101.921036 31.7768393,96.7993372 28.136585,94.6914005 C26.0992555,93.5112106 24.2798335,93.53101 23.0711168,94.5096697" id="Fill-138" fill="#DE8500"></path>
                    <path d="M27.282585,106.342683 C25.5985618,105.368973 24.2332902,102.997279 24.2339954,101.048445 C24.2347006,99.8187567 24.7755908,99.0550628 25.5978566,98.8973741 C25.6112555,98.8952528 25.6211283,98.8945456 25.6359376,98.8952528 L25.6394636,98.8931314 C26.1140647,98.8096908 26.6782266,98.9327303 27.2839954,99.2827567 C28.9644925,100.258588 30.3297642,102.630282 30.332585,104.576994 C30.332585,105.28129 30.1576948,105.833554 29.8488162,106.203379 L29.844585,106.206208 C29.8382382,106.218936 29.8325965,106.227422 29.8241341,106.237321 C29.2761919,106.872319 28.3439145,106.957174 27.282585,106.342683 M20.6959954,98.9984929 C20.6959954,103.213659 23.6451514,108.335358 27.2854058,110.443295 C29.3227353,111.624192 31.1421572,111.603685 32.350874,110.625026 C33.3000763,109.850018 33.874111,108.479612 33.8727006,106.629775 C33.8727006,102.414609 30.9235445,97.2929098 27.2832902,95.1849731 C25.6853017,94.2593478 24.2156601,94.0719599 23.0711168,94.5096697 C21.621926,95.070419 20.694585,96.6395272 20.6959954,98.9984929" id="Fill-140" fill="#F9B233"></path>
                    <polygon id="Fill-142" fill="#F39200" points="9.40944393 83.5869372 34.9525769 127.948362 39.6111434 125.252098 14.0680104 80.8906734"></polygon>
                    <path d="M23.8922543,102.25388 C23.8788555,102.186703 23.863341,102.119526 23.852763,102.053056 C23.8393642,101.97103 23.8323121,101.890418 23.8224393,101.809099 C23.8182081,101.765257 23.8104509,101.719294 23.8062197,101.675452 C23.800578,101.601911 23.7998728,101.530492 23.797052,101.457658 C23.7949364,101.407452 23.7907052,101.355125 23.7907052,101.304919 L23.7907052,101.302091 C23.7914104,101.159252 23.800578,101.026312 23.8146821,100.897616 C23.8189133,100.860845 23.8245549,100.826903 23.8294913,100.792254 C23.8435954,100.698207 23.859815,100.606988 23.8802659,100.520719 C23.8887283,100.486777 23.8971908,100.452128 23.9070636,100.418893 C23.9331561,100.326967 23.9627746,100.238576 23.9973295,100.155843 C24.0043815,100.138872 24.0100231,100.119779 24.0177803,100.102808 C24.0227168,100.092909 24.0276532,100.08513 24.0325896,100.074523 C24.0756069,99.9833045 24.1207399,99.8956211 24.1729249,99.8171303 C24.1729249,99.8171303 24.1757457,99.8143018 24.1764509,99.8121805 C24.1870289,99.7966237 24.2004277,99.7846026 24.2110058,99.7690459 C24.2589595,99.7032834 24.3083237,99.6403493 24.3626243,99.5844865 C24.3746127,99.5717583 24.3873064,99.5597372 24.4,99.5477161 C24.4063468,99.5420591 24.4133988,99.5371092 24.4197457,99.5307451 C24.4775723,99.4777108 24.536104,99.427505 24.6002775,99.3843704 C24.6087399,99.3794206 24.6157919,99.3730565 24.6242543,99.3681066 C24.6327168,99.3624496 24.6411792,99.358914 24.6496416,99.3539641 C24.7265087,99.3072939 24.8047861,99.2641594 24.8894104,99.2330459 C24.8894104,99.2330459 24.8929364,99.2316317 24.895052,99.2316317 C24.9895491,99.1955683 25.0882775,99.1686976 25.1926474,99.1517266 C25.3040694,99.1319272 25.4218382,99.1255631 25.5431329,99.1283916 C25.5551214,99.1290987 25.5685202,99.1283916 25.5819191,99.1298058 C25.6996879,99.1354628 25.8230983,99.1510195 25.9507399,99.1793045 C25.9761272,99.1849615 26.0022197,99.1948612 26.0283121,99.2012253 C26.0656879,99.2104179 26.1051792,99.2266818 26.1425549,99.2379958 C26.2017919,99.2556739 26.2603237,99.2719377 26.3202659,99.2945657 C26.3668092,99.3129509 26.4133526,99.330629 26.4613064,99.3518427 C26.5550983,99.3921488 26.6510058,99.4402332 26.7483237,99.4932675 C26.7793526,99.5095314 26.8089711,99.5229668 26.84,99.5406449 C27.2899191,99.8008665 27.7158613,100.163621 28.1001965,100.58931 C28.9323353,101.511399 29.5634913,102.736845 29.7926821,103.915621 C29.8533295,104.227463 29.8885896,104.537183 29.8885896,104.835589 C29.8885896,104.847611 29.8871792,104.858925 29.8871792,104.870239 C29.8857688,105.010249 29.875896,105.143188 29.8610867,105.271178 C29.8561503,105.314312 29.8490983,105.357447 29.8427514,105.39846 C29.8244162,105.513014 29.8011445,105.624033 29.7722312,105.726566 C29.7665896,105.745658 29.7623584,105.766872 29.7567168,105.78455 C29.7186358,105.909004 29.6706821,106.023558 29.6170867,106.129626 C29.6086243,106.14589 29.6001618,106.160033 29.5924046,106.175589 C29.5352832,106.279537 29.4725202,106.37712 29.4012948,106.461975 C29.3364162,106.542587 29.2644855,106.614006 29.1876185,106.677647 C29.1847977,106.679769 29.1826821,106.683304 29.1798613,106.685426 C29.1149827,106.73846 29.0444624,106.78018 28.9725318,106.821194 C28.9605434,106.827558 28.9492601,106.836043 28.9365665,106.843115 C28.9203468,106.8516 28.903422,106.858671 28.8872023,106.86645 C28.8378382,106.890492 28.7856532,106.907463 28.7334682,106.925141 C28.7101965,106.933626 28.6890405,106.943526 28.6657688,106.950597 C28.6446127,106.955547 28.6241618,106.962618 28.603711,106.968275 C28.5599884,106.978882 28.5148555,106.982418 28.4697225,106.990196 C28.4161272,106.997975 28.3653526,107.010703 28.3096416,107.013531 C28.2680347,107.01636 28.2243121,107.01141 28.1812948,107.010703 C28.115711,107.010703 28.0501272,107.01141 27.9824277,107.003632 C27.9647977,107.00151 27.9471676,106.997975 27.9302428,106.995853 C27.9104971,106.993025 27.8900462,106.987368 27.8710058,106.983832 C27.7969595,106.971811 27.7229133,106.959083 27.645341,106.938576 C27.6199538,106.932212 27.5938613,106.924434 27.5677688,106.916655 C27.5557803,106.91312 27.5444971,106.90817 27.5325087,106.903927 C27.446474,106.877764 27.3597341,106.848064 27.2715838,106.811294 C27.2518382,106.803516 27.2320925,106.796444 27.213052,106.787959 C27.0903468,106.734217 26.965526,106.672698 26.8392948,106.599864 C25.4712023,105.807885 24.3139653,104.094523 23.9275145,102.434196 C23.9134104,102.373384 23.9042428,102.313985 23.8922543,102.25388 M8.77765318,92.6150723 C8.77765318,104.164529 16.8642081,118.208012 26.8392948,123.983093 C36.8143815,129.758175 44.9009364,125.076307 44.9016416,113.526851 C44.9016416,101.977394 36.8150867,87.9332042 26.84,82.1581224 C16.8649133,76.3837478 8.77765318,81.0649087 8.77765318,92.6150723" id="Fill-144" fill="#F39200"></path>
                    <path d="M22.1802347,102.238677 C23.8642578,103.213093 25.2288243,105.583373 25.2288243,107.533621 C25.2288243,109.483162 23.8642578,110.27302 22.1795295,109.298603 C20.4955064,108.323479 19.1309399,105.953199 19.1309399,104.003658 C19.1309399,102.05341 20.4962116,101.263553 22.1802347,102.238677 M22.1795295,126.680418 C32.1553214,132.4555 40.2411711,127.773632 40.2411711,116.224175 C40.2418763,104.674719 32.1560266,90.6305288 22.1802347,84.8561541 C12.2044428,79.0810723 4.11859306,83.7629404 4.11859306,95.3123968 C4.11859306,106.861853 12.2044428,120.906043 22.1795295,126.680418" id="Fill-146" fill="#F9B233"></path>
                    <path d="M20.5328821,101.849263 C21.006778,101.765823 21.5730555,101.883912 22.1816451,102.236767 C23.861437,103.212598 25.2267087,105.584292 25.2295295,107.531005 C25.2302347,108.236007 25.0511133,108.788978 24.7422347,109.159511 C24.2020497,109.824208 23.2570786,109.921084 22.1795295,109.296693 C20.4955064,108.322984 19.1302347,105.95129 19.1309399,104.002456 C19.1323503,102.757918 19.6887549,101.985738 20.5328821,101.849263 M8.14670867,97.6432897 C8.14741387,106.615986 14.4300613,117.528324 22.1795295,122.01644 C26.2887434,124.395912 29.9797723,124.490667 32.5495295,122.720028 C34.8273329,121.14597 36.2151711,118.105337 36.2144659,113.890171 C36.2137607,104.917474 29.9304081,94.0051367 22.1816451,89.5177277 C18.5413908,87.409791 15.2205931,87.0951208 12.7234717,88.2859177 C9.90971445,89.6315747 8.14529827,92.8843451 8.14670867,97.6432897" id="Fill-148" fill="#DE8500"></path>
                    <path d="M23.0968566,101.706283 C24.7766486,102.682821 26.1419202,105.053808 26.144741,107.001227 C26.1461514,108.248594 25.5897468,109.021481 24.7456197,109.157249 L24.7420936,109.15937 C24.7350416,109.173512 24.7294,109.181291 24.7216428,109.191191 C24.1737006,109.826188 23.2414231,109.911043 22.1793884,109.296552 C20.4960705,108.322842 19.1300936,105.951148 19.1307988,104.002315 C19.131504,102.773333 19.6730994,102.009639 20.4953653,101.85195 C20.508059,101.849122 20.5179318,101.848415 20.532741,101.849122 L20.5362671,101.847001 C21.076452,101.182304 22.0193075,101.081892 23.0968566,101.706283 M9.06192023,97.1128053 C9.06262543,106.085502 15.345978,116.998547 23.094741,121.485956 C26.7349954,123.593185 30.0515618,123.909977 32.5493884,122.719887 C34.8271919,121.145829 36.2157353,118.105196 36.2150301,113.89003 C36.2143249,104.917333 29.9302671,94.0049953 22.181504,89.5175863 C18.5412497,87.4096496 15.220452,87.0949794 12.7233306,88.2857763 C10.4462324,89.8591272 9.06121503,92.8983462 9.06192023,97.1128053" id="Fill-150" fill="#F39200"></path>
                    <path d="M22.1795295,109.296835 C20.4955064,108.323125 19.1302347,105.951431 19.1309399,104.002597 C19.1316451,102.772909 19.6725353,102.009215 20.4948012,101.852233 C21.0427434,101.216529 21.9729052,101.128138 23.0342347,101.741922 C24.7182578,102.716339 26.0835295,105.088033 26.0828243,107.036866 C26.0828243,108.265848 25.5433445,109.033785 24.7210786,109.191473 C24.1738416,109.826471 23.2415642,109.910618 22.1795295,109.296835 M17.9680613,97.4645288 C17.018859,98.2388296 16.4448243,99.6092359 16.4462347,101.459072 C16.4462347,105.673531 19.396096,110.795938 23.0356451,112.903874 C24.6329283,113.8295 26.1025699,114.016888 27.2478185,113.579178 C28.6970092,113.019136 29.6243503,111.44932 29.6236451,109.090355 C29.6229399,104.875188 26.6737838,99.7534892 23.0335295,97.6448454 C20.9962,96.4653625 19.1774832,96.485162 17.9680613,97.4645288" id="Fill-152" fill="#DE8500"></path>
                    <path d="M22.1795295,109.296835 C20.4955064,108.323125 19.1302347,105.951431 19.1309399,104.002597 C19.1316451,102.772909 19.6725353,102.009215 20.4948012,101.852233 C20.5082,101.849405 20.5180728,101.848698 20.5328821,101.849405 L20.5364081,101.847283 C21.0110092,101.763843 21.5751711,101.886882 22.1816451,102.236909 C23.861437,103.21274 25.2267087,105.584434 25.2295295,107.531146 C25.2302347,108.236149 25.0546393,108.787706 24.7457607,109.157531 L24.7422347,109.159653 C24.7351827,109.173088 24.729541,109.181574 24.7210786,109.191473 C24.1738416,109.826471 23.2415642,109.910618 22.1795295,109.296835 M15.5929399,101.952645 C15.5929399,106.167811 18.5428012,111.28951 22.1823503,113.398154 C24.2196798,114.578344 26.0391017,114.557837 27.2478185,113.579178 C28.1970208,112.80417 28.7710555,111.433764 28.7703503,109.583927 C28.7696451,105.368761 25.820489,100.247062 22.1802347,98.1398322 C20.5829514,97.2134997 19.1126046,97.0261119 17.9680613,97.4645288 C16.5188705,98.024571 15.5915295,99.5936792 15.5929399,101.952645" id="Fill-154" fill="#F9B233"></path>
                    <path d="M17.165259,103.413351 C17.165259,101.584728 17.9720104,100.447673 19.1955364,100.212908 C19.2145769,100.209372 19.2286809,100.207958 19.2512474,100.209372 L19.256889,100.206544 C19.9627965,100.081383 20.8019873,100.265942 21.7046462,100.785678 C24.2045884,102.238111 26.2376867,105.768074 26.2419179,108.665868 C26.2426231,109.714533 25.9816983,110.535504 25.5219064,111.086354 L25.5162647,111.089182 C25.5056867,111.109689 25.4979295,111.12171 25.4845306,111.136559 C24.6707272,112.081984 23.2821838,112.207852 21.7025306,111.294248 C19.1969468,109.844644 17.1638486,106.314681 17.165259,103.413351" id="Fill-156" fill="#1E8CB2"></path>
                    <path d="M4.69960925,112.35458 C4.70031445,111.125599 5.24190983,110.361905 6.06417572,110.204216 C6.07686936,110.201388 6.0867422,110.200681 6.10155145,110.202095 L6.10507746,110.199266 C6.57897341,110.115826 7.14384046,110.239573 7.74960925,110.588892 C9.43010636,111.564723 10.7960832,113.936417 10.7981988,115.883129 C10.798904,116.588132 10.6233087,117.140396 10.3144301,117.510222 L10.3101988,117.512343 C10.303852,117.525778 10.2982104,117.533557 10.289748,117.544164 C9.74251098,118.178454 8.80952832,118.263309 7.74819884,117.649525 C6.06488092,116.675108 4.69890405,114.303414 4.69960925,112.35458" id="Fill-158" fill="#B2B2B2"></path>
                    <polygon id="Fill-160" fill="#1E8CB2" points="14.4484671 102.813922 20.8636925 113.954661 24.8699468 111.635294 18.4561318 100.493848"></polygon>
                    <path d="M13.0484289,105.797137 C13.0491341,103.967807 13.8551803,102.830751 15.0787064,102.596693 C15.0977468,102.592451 15.1118509,102.591036 15.1344173,102.593158 L15.140059,102.589622 C15.8459665,102.465168 16.6858624,102.649021 17.5878162,103.168757 C20.0877584,104.621189 22.1208566,108.151153 22.1250879,111.048947 C22.1257931,112.097612 21.8648682,112.918583 21.4050763,113.470139 L21.3994347,113.472261 C21.3888566,113.493474 21.3810994,113.504788 21.3684058,113.520345 C20.5538971,114.465063 19.166059,114.591638 17.5857006,113.677327 C15.0801168,112.227722 13.0470185,108.697759 13.0484289,105.797137" id="Fill-162" fill="#34A2C8"></path>
                    <path d="M14.4560127,106.706569 C14.4560127,105.477587 14.9983133,104.713893 15.819874,104.556205 C15.8325676,104.553376 15.8424405,104.552669 15.8572497,104.554083 L15.8614809,104.551255 C16.3353769,104.467814 16.9002439,104.591561 17.5060127,104.94088 C19.1858046,105.916711 20.5517815,108.288405 20.5546023,110.235118 C20.5553075,110.939413 20.3797121,111.492384 20.0701283,111.86221 L20.0666023,111.864331 C20.0595503,111.87706 20.0546139,111.885545 20.0461514,111.896152 C19.4982092,112.530442 18.5659318,112.615297 17.5038971,112.000806 C15.8212844,111.027097 14.4553075,108.655403 14.4560127,106.706569" id="Fill-164" fill="url(#linearGradient-12)"></path>
                    <polygon id="Fill-166" fill="url(#linearGradient-7)" points="15.3354705 104.737794 19.6463723 112.22553 5.74471908 120.273309 1.43381734 112.785573"></polygon>
                    <path d="M0.540678613,114.76255 C0.541383815,113.533568 1.08297919,112.769874 1.90524509,112.611479 C1.91793873,112.609357 1.92781156,112.60865 1.94191561,112.609357 L1.94614682,112.607236 C2.42004277,112.523795 2.98490983,112.647542 3.59067861,112.996861 C5.27117572,113.972692 6.6371526,116.344386 6.63926821,118.291099 C6.63997341,118.995394 6.46437803,119.548365 6.15549942,119.918191 L6.15126821,119.920312 C6.14492139,119.933041 6.13927977,119.941526 6.13081734,119.951426 C5.58358035,120.586423 4.65059769,120.671278 3.58926821,120.056787 C1.90595029,119.083078 0.53997341,116.711384 0.540678613,114.76255" id="Fill-168" fill="#1E8CB2"></path>
                    <path d="M99.9797052,122.531934 C99.9797052,126.033612 98.2752312,129.526804 95.538341,132.196904 C93.6864798,134.017042 91.3550809,135.46806 88.765578,136.27206 C87.2818324,136.743712 85.6965376,137.001812 84.0745723,137.001812 C75.5049538,137.001812 67.4141676,131.651712 67.4141676,124.379649 C67.4141676,117.108292 72.2250578,109.595807 80.7855087,109.595807 C86.7106185,109.595807 93.6131387,112.303385 97.3168613,116.377833 C97.3168613,116.387733 97.3260289,116.387733 97.3260289,116.396218 C98.9479942,118.180292 99.9430347,120.221759 99.9705376,122.411722 C99.9797052,122.4492 99.9797052,122.495163 99.9797052,122.531934" id="Fill-170" fill="url(#linearGradient-4)"></path>
                    <path d="M79.704504,109.652447 C71.823163,110.261988 67.417059,117.420205 67.417059,124.376184 C67.417059,130.388859 72.9479607,135.081334 79.704504,136.530938 L79.704504,109.652447 Z" id="Fill-172" fill="#3D2941"></path>
                    <polygon id="Fill-174" fill="#E6C48E" points="107.038639 126.227788 99.9795642 134.081814 95.5382 132.196622 91.6130439 130.534173 99.0592751 121.912917 99.9711017 122.412147"></polygon>
                    <path d="M133.534712,126.224959 C133.534712,133.36974 128.893071,139.161086 123.168238,139.161086 C117.442701,139.161086 112.801059,133.36974 112.801059,126.224959 C112.801059,119.080178 117.442701,113.288833 123.168238,113.288833 C128.893071,113.288833 133.534712,119.080178 133.534712,126.224959" id="Fill-176" fill="url(#linearGradient-4)"></path>
                    <path d="M131.346117,103.124703 C132.353146,112.965748 133.994151,128.65188 124.319481,128.650465 C116.948001,128.649758 111.41851,111.163996 111.41851,101.276988 C111.41851,95.039447 115.795701,85.1071831 120.402787,85.1071831 C126.12903,85.1071831 130.200163,91.920323 131.346117,103.124703" id="Fill-178" fill="url(#linearGradient-3)"></path>
                    <path d="M127.775325,74.133962 C128.786585,83.9693499 130.885267,95.0393763 121.209186,95.0393763 C113.837706,95.0393763 111.418862,85.2916718 111.418862,75.4046639 C111.418862,67.2041467 113.261556,57.0399462 117.869348,57.0399462 C122.02299,57.0399462 126.623024,62.9302892 127.775325,74.133962" id="Fill-180" fill="url(#linearGradient-3)"></path>
                    <path d="M84.5520647,75.869315 C85.368689,74.928133 85.3968971,73.5570195 85.372215,72.3103599 C85.3567006,71.5360591 85.3348393,70.7504443 85.1035329,70.0107926 C84.5816832,68.3419799 83.099348,67.1914892 81.6974058,66.1498955 C80.6508855,65.3720591 79.4612092,64.5546237 78.1685734,64.7130195 C77.5331861,64.790096 76.9535098,65.1005235 76.3900532,65.4045868 C74.214504,66.5798269 72.1602497,68.0181172 69.8619954,68.9303071 C68.7809202,69.3602385 68.5587815,70.1486818 68.4967237,70.5064865 C68.4015214,71.0608718 69.672296,70.600534 70.2019029,70.7879219 C71.5904462,71.2814945 72.9796948,71.775067 74.3696486,72.2679325 C74.6764116,72.3775367 74.9874058,72.4885551 75.2518566,72.6801858 C76.835741,73.827848 75.5854173,76.5665393 76.6721341,78.1950459 C77.2313595,79.0329879 78.4203306,79.3780644 79.338504,78.9693467 C79.9146543,78.7133678 80.3483538,78.2212095 80.8673827,77.8641119 C82.0288509,77.066476 83.6282497,76.9335367 84.5520647,75.869315" id="Fill-182" fill="url(#linearGradient-4)"></path>
                    <path d="M122.840954,54.9953678 C123.501728,54.4827029 124.137116,53.9106396 124.554595,53.1844232 C125.211844,52.0402966 125.255566,50.6564549 125.282364,49.3362544 C125.30352,48.3172887 125.318329,47.2636739 124.934699,46.3196633 C124.11596,44.305067 121.809243,43.4162121 119.735948,42.7755578 C119.235254,42.6206976 118.712699,42.4651303 118.193671,42.542914 C117.745162,42.6086765 117.341786,42.8420274 116.950399,43.0718427 C115.130272,44.1374786 113.295335,45.2130142 111.728376,46.6265551 C111.465335,46.8648559 111.198064,47.1321488 111.119081,47.4779325 C111.014006,47.9396844 111.284803,48.4226501 111.663497,48.7062069 C112.042191,48.9904707 112.511855,49.117753 112.967416,49.242914 C113.848214,49.4854575 114.735358,49.7456792 115.522364,50.2095525 C116.308665,50.674133 116.996942,51.3678216 117.273382,52.2404127 C117.606942,53.2883704 117.314988,54.4268401 117.42359,55.5214681 C117.475775,56.0412042 117.648549,56.5955894 118.078017,56.8911673 C118.710584,57.3267557 119.571636,57.0226923 120.250746,56.6641805 C121.159751,56.1854575 122.028561,55.6261224 122.840954,54.9953678" id="Fill-184" fill="url(#linearGradient-3)"></path>
                    <path d="M108.236919,143.312682 L88.765578,136.271848 L85.3742601,135.052059 L86.001185,126.227859 C92.0179711,127.577051 101.224387,123.105199 97.3260289,116.396713 C98.9479942,118.18008 99.9430347,120.222254 99.9705376,122.41151 L107.03878,126.227859 L107.139624,126.153611 C110.927266,131.309959 112.96389,137.464059 108.236919,143.312682" id="Fill-186" fill="#1D1D1B"></path>
                    <path d="M147.584317,147.785383 L128.592513,171.494544 C124.924756,168.584021 118.548317,167.826691 110.843982,167.13371 C102.117808,166.348095 91.6864555,165.645921 81.6048832,161.986554 L78.8129873,152.571198 L75.2474844,140.55009 C76.4357503,139.608201 77.6247214,138.67409 78.8129873,137.759071 C79.5414613,137.204686 80.2692301,136.660201 80.9969988,136.124201 C86.9319815,131.743567 92.9762705,128.159156 99.3252069,127.271715 L99.3350798,127.271715 C101.012051,127.022807 102.707357,126.976137 104.430872,127.151504 C104.753854,126.200422 105.12197,125.286111 105.554964,124.38877 C107.444201,120.573129 110.678259,117.348644 117.635785,115.140296 C130.997253,117.985763 135.918155,143.007346 147.584317,147.785383" id="Fill-188" fill="url(#linearGradient-4)"></path>
                    <path d="M147.584317,147.785383 L128.592513,171.494544 C123.44101,167.401003 112.926444,167.567884 100.929542,166.181921 C103.933704,165.295187 106.273565,163.658902 106.273565,160.720802 C106.273565,148.339061 93.6215306,137.666438 81.2276,135.957319 C82.9870798,134.663989 84.7663052,133.444908 86.5539931,132.344623 C97.5008486,133.915852 106.956201,139.709319 116.410143,130.228908 C120.096236,127.456982 119.175242,122.83734 116.410143,120.988211 C113.360143,118.854111 111.803057,118.789763 109.922987,118.974322 C110.90886,118.207799 112.051288,117.486533 113.387646,116.821836 C115.949646,116.599799 118.474976,117.579166 120.943889,119.205551 C120.962224,119.214744 120.972097,119.233129 120.989727,119.243029 C125.081311,121.940707 129.043843,126.403367 132.877323,130.127082 C133.033877,130.385889 133.190432,130.644697 133.347692,130.913404 C134.655843,133.074375 135.945658,135.255145 137.263681,137.307219 C140.313681,142.055557 143.547739,146.130712 147.584317,147.785383" id="Fill-190" fill="#7D5E84"></path>
                    <path d="M87.6139121,97.0802776 C88.6251723,106.914958 90.7238543,117.985692 81.0477734,117.985692 C73.6755884,117.985692 71.2574497,108.237987 71.2574497,98.3509794 C71.2574497,90.1497551 73.1001434,79.9862617 77.7072301,79.9862617 C81.8615769,79.9862617 86.4616116,85.8766047 87.6139121,97.0802776" id="Fill-192" fill="url(#linearGradient-4)"></path>
                    <path d="M110.844264,167.133922 C102.11809,166.348307 91.6867376,165.646133 81.6051653,161.986766 L78.8132694,152.570703 L78.8132694,134.082239 C79.5325757,134.802798 80.2603445,135.476687 80.9972809,136.123706 C89.1712809,143.293943 97.9616277,145.650787 108.734298,141.927072 C98.0906798,147.248888 85.4753156,161.145996 110.844264,167.133922" id="Fill-194" fill="#5B3E60" opacity="0.0993861607"></path>
                    <path d="M93.3725942,149.170639 C93.3725942,156.31542 88.7316578,162.106765 83.0061202,162.106765 C77.2812879,162.106765 72.6396462,156.31542 72.6396462,149.170639 C72.6396462,142.026565 77.2812879,136.235219 83.0061202,136.235219 C88.7316578,136.235219 93.3725942,142.026565 93.3725942,149.170639" id="Fill-196" fill="url(#linearGradient-4)"></path>
                    <path d="M91.1839988,126.071018 C92.1910277,135.912063 93.8327387,151.598195 84.1580682,151.596781 C76.7858832,151.595367 71.2570971,134.110311 71.2570971,124.223303 C71.2570971,117.985763 75.6335827,108.052792 80.2413746,108.052792 C85.9676173,108.052792 90.0387503,114.866639 91.1839988,126.071018" id="Fill-198" fill="url(#linearGradient-4)"></path>
                    <path d="M118.713757,136.235219 C112.419827,131.097256 106.006012,127.650734 99.3355029,127.271715 C101.011769,127.022807 102.70778,126.976137 104.43059,127.151504 C104.753572,126.200422 105.122393,125.286111 105.555387,124.38877 C110.632139,126.754807 115.221595,130.996137 118.713757,136.235219" id="Fill-200" fill="#1D1D1B"></path>
                    <path d="M133.34734,130.913121 C130.463062,127.558525 127.827721,127.724699 124.703675,129.822028 C127.846057,125.072984 125.329895,122.79958 120.99008,119.242746 C125.080958,121.941131 129.04349,126.403084 132.87697,130.127506 C133.03423,130.385606 133.19008,130.644414 133.34734,130.913121" id="Fill-202" fill="#5B3E60" opacity="0.0993861607"></path>
                    <path d="M119.995321,59.3320179 L115.522223,57.6172422 L116.350836,51.1520074 C117.424859,49.7101815 120.328882,47.8271103 121.182177,49.1784243 C122.208246,50.8026881 121.196986,52.2134005 120.055969,53.3822765 C121.046073,55.5941604 120.68924,58.0464665 119.995321,59.3320179" id="Fill-204" fill="url(#linearGradient-13)"></path>
                    <path d="M114.943252,51.802915 C115.179495,51.4649098 115.504593,51.2011525 115.829691,50.9494164 C116.677345,50.2932053 117.563079,49.6857858 118.480547,49.1299863 C118.729483,48.9786617 118.988292,48.8280443 119.276015,48.7785456 C120.080651,48.6371208 120.848616,49.3895008 120.936766,50.2041077 C121.024917,51.0194216 120.58205,51.8135219 119.99109,52.378514 C119.693495,52.6627778 119.347946,52.9180496 119.173761,53.290704 C118.89309,53.8938807 119.143437,54.5995905 119.399425,55.2133741 C119.750616,56.056266 120.115911,56.9133003 120.195599,57.8233689 C120.275992,58.7334375 120.021414,59.7241182 119.319738,60.3067884 C118.448108,61.0322976 117.178038,60.9424929 116.059587,60.7600549 C115.735194,60.7070206 115.395287,60.6419652 115.142824,60.4291208 C114.809969,60.1483926 114.713356,59.6809836 114.652709,59.2475166 C114.42916,57.6543662 114.420697,56.0400021 114.412235,54.4320021 C114.407298,53.5226406 114.422108,52.5475166 114.943252,51.802915" id="Fill-206" fill="url(#linearGradient-4)"></path>
                    <path d="M84.6760393,77.1564929 C83.9066636,76.6035219 82.6817272,77.0122396 81.3926173,77.5581393 C81.5146173,76.0915641 82.6133225,75.6128412 84.0709757,74.5288201 C81.0040509,74.836419 79.8947676,71.9174111 80.788259,71.2081657 C85.4207329,69.7543187 86.8374844,71.36939 84.6760393,77.1564929" id="Fill-208" fill="url(#linearGradient-13)"></path>
                    <path d="M82.3538081,77.1709889 C82.1232069,77.4191894 81.8954266,77.6758755 81.7381665,77.9764032 C81.335496,78.7471683 81.4518543,79.6763293 81.5773803,80.5376063 C81.6274497,80.8734902 81.7113688,81.2602871 82.0139006,81.4144401 C82.4673457,81.6456697 82.9447676,81.1740179 83.2698659,80.7801499 C83.7571607,80.1889942 84.3199121,79.6600654 84.9404902,79.2096274 C85.5504902,78.7662607 86.2317156,78.385828 86.6837503,77.7805298 C87.1280277,77.1865456 87.3050335,76.429923 87.3438197,75.6881499 C87.4235075,74.1713689 86.9714728,72.6821657 86.5243746,71.2311472 C86.4489179,70.9857752 86.3692301,70.7333319 86.2063283,70.5346301 C85.8219931,70.0686354 85.1273688,70.0544929 84.5244208,70.0792422 C84.1422012,70.0940918 83.7606867,70.1103557 83.3791723,70.1252053 C82.8488601,70.146419 82.3065595,70.1711683 81.8143283,70.3705773 C81.3228023,70.5699863 80.8827561,70.9836538 80.8016578,71.509047 C80.6852994,72.2684982 81.339022,72.9445087 82.0414035,73.2506934 C82.7444902,73.5568781 83.5329064,73.6325404 84.2247098,73.9620602 C84.4200509,74.0554005 84.6182127,74.1812686 84.6964902,74.3842132 C84.8459931,74.7703029 84.4891607,75.152857 84.1739353,75.4222712 C83.5357272,75.9709995 82.9264324,76.5543768 82.3538081,77.1709889" id="Fill-210" fill="url(#linearGradient-4)"></path>
                    <path d="M212.082825,175.874187 L198.176236,177.507643 C184.968502,196.911126 198.32997,205.381765 199.712166,226.864192 C200.480132,231.099158 209.388247,230.637406 210.309242,226.864192 L212.082825,175.874187 Z" id="Fill-216" fill="url(#linearGradient-4)"></path>
                    <path d="M211.91132,176.883818 C209.493182,183.737264 196.383471,182.754362 182.154603,180.188209 C167.925736,177.622763 153.92465,168.353074 155.089644,161.859555 C156.253933,155.366035 159.629736,148.324494 178.62295,153.314668 C193.248846,157.15718 214.189829,170.425655 211.91132,176.883818" id="Fill-212" fill="url(#linearGradient-4)"></path>
                    <path d="M178.54164,195.893928 L164.635051,197.527385 C151.427317,216.931575 164.181606,225.381707 165.563802,246.864841 C166.331768,251.099807 175.846357,250.657147 176.768057,246.883934 L178.54164,195.893928 Z" id="Fill-214" fill="url(#linearGradient-4)"></path>
                    <path d="M190.797281,157.939896 C187.135165,154.541458 148.605027,141.779283 155.089362,161.859484 C156.411616,165.954439 158.338229,173.367927 174.429535,178.153742 C173.542391,167.497384 181.144472,154.656719 190.797281,157.939896" id="Fill-218" fill="#423914"></path>
                    <path d="M175.891561,152.655841 C167.227445,151.916189 156.793977,150.074131 147.586855,147.78517 C139.677306,146.399207 122.861052,160.258838 128.504786,171.193097 C130.701491,179.391492 135.695029,183.383207 142.432532,184.752907 L175.891561,152.655841 Z" id="Fill-220" fill="#423914"></path>
                    <path d="M174.429535,178.153742 L146.973188,173.041236 C155.609801,169.431368 162.71542,168.575041 159.566691,157.41026 L162.453084,164.562819 C164.083512,168.603326 166.746356,172.142481 170.174345,174.824603 L174.429535,178.153742 Z" id="Fill-222" fill="#3D2941"></path>
                    <path d="M176.998305,198.720374 C171.55908,203.526696 163.071265,204.09593 151.888166,194.908975 C140.703658,185.72202 132.973935,170.791097 137.143797,165.687783 C141.312953,160.583761 149.353669,159.33498 163.521889,172.964089 C174.432074,183.45993 182.124421,194.191951 176.998305,198.720374" id="Fill-224" fill="url(#linearGradient-4)"></path>
                    <path d="M171.020587,180.862027 C169.91483,179.027748 164.810576,173.655727 163.424853,172.36664 C148.585986,158.564993 142.897824,157.866355 135.986842,166.220318 C131.998217,171.042196 139.957131,184.23713 150.225582,193.473584 C148.696703,183.461415 163.521466,172.964159 171.020587,180.862027" id="Fill-226" fill="#423914"></path>
                    <path d="M211.073892,224.098135 C210.94202,223.323127 204.498586,225.802304 205.612806,230.072626 C204.221442,231.218874 203.034586,230.720351 201.297673,229.670979 C199.767384,228.745354 198.993777,226.857333 199.293488,224.199254 C198.894343,224.676563 198.242736,226.905417 198.122852,227.516373 C197.456436,230.899254 197.475476,231.232309 197.78506,233.450557 C199.698979,236.864552 203.635418,236.24794 207.372991,239.142906 C213.912332,244.210156 221.496783,248.302283 225.625037,244.117523 C226.897927,242.825607 226.608794,240.683022 226.414864,239.770125 C225.98328,237.743507 223.517892,237.189122 220.358586,234.915718 C213.561846,230.023834 211.664147,227.574357 211.073892,224.098135" id="Fill-228" fill="#EDEDED"></path>
                    <path d="M211.073892,221.538912 C210.94202,220.764611 204.498586,223.243788 205.612806,227.51411 C204.221442,228.660358 203.034586,228.162542 201.297673,227.112463 C199.767384,226.186838 199.511395,224.535703 199.246945,222.453223 C198.8478,222.931239 198.242736,224.346901 198.122852,224.957856 C197.456436,228.340738 197.475476,228.673793 197.78506,230.892748 C199.698979,234.306036 203.635418,233.689424 207.372991,236.584389 C213.912332,241.65164 221.178736,245.402933 225.625037,241.559007 C227.914829,239.57906 224.940991,235.654521 220.358586,232.356495 C213.561846,227.465318 211.664147,225.015841 211.073892,221.538912" id="Fill-230" fill="#47585E"></path>
                    <path d="M179.676523,247.778516 C179.054534,247.3005 178.664557,246.582769 178.354268,245.861503 C177.665991,244.261281 172.073031,247.41364 172.482049,249.020933 C170.704234,249.208321 168.846731,249.386516 167.183158,248.731719 C165.520291,248.076215 164.761494,245.054674 165.189551,243.315149 C164.761494,243.766294 164.391968,245.458442 164.234002,246.060912 C163.356025,249.395002 163.609898,251.176247 163.779147,253.410052 C170.859378,261.362368 188.062083,268.997893 193.119794,261.836141 C193.588754,261.172859 194.109193,258.480838 193.712869,257.787856 C192.363112,255.426062 180.257609,248.224711 179.676523,247.778516" id="Fill-232" fill="#EDEDED"></path>
                    <path d="M177.419099,241.325302 C177.320371,240.545345 170.749296,242.60944 171.592718,246.942696 C170.132244,247.999139 168.978533,247.426368 167.31214,246.268806 C165.842498,245.248426 165.189481,243.315149 164.862972,240.895371 C164.434914,241.346516 163.725481,243.441725 163.609828,244.054801 C163.188117,246.292849 163.398972,247.584764 163.567516,249.818569 C170.648452,257.770885 188.189654,266.53498 193.248776,259.373228 C194.475828,257.636532 192.710706,255.009566 189.258036,253.13498 C182.251851,249.333482 177.89229,245.061039 177.419099,241.325302" id="Fill-234" fill="#47585E"></path>
                </g>
            </g>
        </g>
    </g>
</svg>