<?xml version="1.0" encoding="UTF-8"?>
<svg width="16px" height="16px" viewBox="0 0 16 16" version="1.1" xmlns="http://www.w3.org/2000/svg" xmlns:xlink="http://www.w3.org/1999/xlink">
    <!-- Generator: Sketch 49.3 (51167) - http://www.bohemiancoding.com/sketch -->
    <title>gymnast-apple-diet-with-natural-supplements</title>
    <desc>Created with Sketch.</desc>
    <defs></defs>
    <g id="Page-1" stroke="none" stroke-width="1" fill="none" fill-rule="evenodd">
        <g id="Menu-chính" transform="translate(-30.000000, -351.000000)" fill="#000000" fill-rule="nonzero">
            <g id="gymnast-apple-diet-with-natural-supplements" transform="translate(30.000000, 351.000000)">
                <path d="M14.0611534,7.71690798 C13.0826994,7.31170552 12.1682454,7.39680982 11.4640491,7.94080982 L11.4640491,7.31759509 C11.6052025,7.34723926 11.7862086,7.37472393 11.9876319,7.37472393 C12.3158773,7.37472393 12.6057423,7.3047362 12.8495706,7.16731288 C13.570454,6.75906748 13.7712883,5.8126135 13.7790429,5.7728589 C13.8106503,5.62346012 13.7258405,5.47435583 13.5823313,5.4235092 C13.568,5.41781595 13.2081472,5.29168098 12.7718282,5.29168098 C12.443681,5.29168098 12.153816,5.36157055 11.9099877,5.4993865 C11.7306503,5.6009816 11.5836074,5.73546012 11.4640491,5.88132515 L11.4640491,5.17006135 C11.4640491,5.00122699 11.3260368,4.864 11.1580859,4.864 C10.9883681,4.864 10.8520245,5.00112883 10.8520245,5.17006135 L10.8520245,7.94130061 C10.3954847,7.58959509 9.84912883,7.43568098 9.25801227,7.47690798 L9.25801227,4.72628221 C9.25801227,4.34611043 9.00878528,3.81506748 7.90596319,3.38660123 L7.90596319,1.44068712 C7.90596319,-0.365251534 1.35204908,-0.365251534 1.35204908,1.44068712 L1.35204908,3.38532515 C0.480785276,3.72368098 0,4.19435583 0,4.72628221 L0,13.7767853 C0,14.9871902 2.38517791,15.6392638 4.62890798,15.6392638 C6.27651534,15.6392638 7.77796319,15.3087607 8.58758282,14.7761472 C9.17339877,15.2991411 9.81084663,15.6392638 10.4144294,15.6392638 C10.6158528,15.6392638 10.8089325,15.6016687 10.987092,15.5274601 C11.0444172,15.5036074 11.1005644,15.4761227 11.1579877,15.4413742 C11.214135,15.4761227 11.2708712,15.5036074 11.3259387,15.5274601 C11.504589,15.6016687 11.6983558,15.6398528 11.9003681,15.6398528 C13.3617669,15.6398528 15.0210552,13.6751902 15.6539877,11.8396074 C16.3174479,9.91381595 15.7377178,8.41119018 14.0611534,7.71690798 Z M12.2099632,6.03111656 C12.4394601,5.90144785 12.8172761,5.88495706 13.0897669,5.93011043 C12.9989693,6.16088344 12.8292515,6.47489571 12.5488098,6.63361963 C12.3976442,6.71852761 12.2087853,6.76152147 11.9875337,6.76152147 C11.8727853,6.76152147 11.7616687,6.74925153 11.6684172,6.73403681 C11.7599018,6.50444172 11.9278528,6.19160736 12.2099632,6.03111656 Z M1.96348466,3.65398773 C1.97182822,3.61305521 1.97241718,3.57153374 1.96348466,3.52853988 L1.96348466,2.27445399 C2.58954601,2.63195092 3.6128589,2.81541104 4.62831902,2.81541104 C5.64348466,2.81541104 6.66709202,2.63195092 7.29315337,2.27445399 L7.29315337,3.7842454 C7.29315337,4.05290798 6.28122699,4.54753374 4.62831902,4.54753374 C2.9750184,4.54753374 1.96348466,4.05290798 1.96348466,3.7842454 L1.96348466,3.65398773 Z M4.62831902,0.676220859 C6.28122699,0.676220859 7.29315337,1.17084663 7.29315337,1.44009816 C7.29315337,1.70974233 6.28122699,2.20397546 4.62831902,2.20397546 C2.9750184,2.20397546 1.96348466,1.70974233 1.96348466,1.44009816 C1.96348466,1.17084663 2.97511656,0.676220859 4.62831902,0.676220859 Z M1.39838037,4.02611043 C1.66576687,4.77055215 3.15317791,5.15965644 4.62831902,5.15965644 C6.10434356,5.15965644 7.59293252,4.76996319 7.85865031,4.02483436 C8.43033129,4.27641718 8.64530061,4.54331288 8.64530061,4.72569325 C8.64530061,5.24780368 7.11695706,5.97546012 4.62841718,5.97546012 C2.13958282,5.97546012 0.611533742,5.24770552 0.611533742,4.72569325 C0.611435583,4.50159509 0.911803681,4.24274847 1.39838037,4.02611043 Z M0.611435583,8.20554601 C1.40760736,8.75779141 2.86930061,9.06679755 4.32235583,9.10566871 L4.32235583,12.6023067 C2.01492025,12.5448834 0.611435583,11.8551166 0.611435583,11.3554847 L0.611435583,8.20554601 Z M0.611435583,13.7755092 L0.611435583,12.3141104 C1.4637546,12.905816 3.07906748,13.2172761 4.62831902,13.2172761 C4.79715337,13.2172761 4.93438037,13.0791656 4.93438037,12.9112147 L4.93438037,8.80323926 C4.93438037,8.63401227 4.79725153,8.49727607 4.62831902,8.49727607 C2.13948466,8.49727607 0.611435583,7.76893252 0.611435583,7.24682209 L0.611435583,5.68647853 C1.4637546,6.27739877 3.07906748,6.58876074 4.62831902,6.58876074 C6.17727607,6.58876074 7.79258896,6.27739877 8.64520245,5.68647853 L8.64520245,7.58154601 C8.5151411,7.61894479 8.38429448,7.66223313 8.25217178,7.71759509 C6.5750184,8.4123681 5.99489571,9.91381595 6.6601227,11.8384294 C6.9631411,12.7170552 7.50174233,13.6219877 8.14007362,14.3297178 C7.40819632,14.7546503 6.06782822,15.0266503 4.6276319,15.0266503 C2.13948466,15.0260613 0.611435583,14.2974233 0.611435583,13.7755092 Z M15.0754356,11.638184 C14.3935215,13.6148221 12.5841472,15.3840491 11.5591656,14.9608834 C11.4963436,14.9345767 11.4288098,14.8927607 11.3457669,14.827681 C11.2906994,14.7840982 11.2238528,14.7625031 11.1568098,14.7625031 C11.089865,14.7625031 11.0230184,14.7851779 10.9679509,14.827681 C10.8854969,14.8915828 10.8167853,14.9346748 10.7527853,14.9608834 C9.7403681,15.3828712 7.92058896,13.6148221 7.23798773,11.638184 C6.52878528,9.58507975 7.52520245,8.6807362 8.48657669,8.28319018 C9.48211043,7.87052761 10.324908,8.0681227 10.9082699,8.8809816 C10.9118037,8.88638037 10.9184785,8.88804908 10.9220123,8.8928589 C10.9787485,8.96225767 11.0613006,9.00888344 11.1557301,9.00888344 C11.2514356,9.00888344 11.3337914,8.96225767 11.3900368,8.8928589 C11.3948466,8.88804908 11.4014233,8.88638037 11.4043681,8.8809816 C11.9865521,8.06871166 12.8298405,7.87170552 13.8256687,8.28319018 C14.7873374,8.68014724 15.7831656,9.58507975 15.0754356,11.638184 Z" id="Shape"></path>
            </g>
        </g>
    </g>
</svg>