<?xml version="1.0" encoding="UTF-8"?>
<svg width="109px" height="7px" viewBox="0 0 109 7" version="1.1" xmlns="http://www.w3.org/2000/svg" xmlns:xlink="http://www.w3.org/1999/xlink">
    <!-- Generator: Sketch 49.3 (51167) - http://www.bohemiancoding.com/sketch -->
    <title>Line 15</title>
    <desc>Created with Sketch.</desc>
    <defs></defs>
    <g id="Page-1" stroke="none" stroke-width="1" fill="none" fill-rule="evenodd" stroke-linecap="square">
        <g id="Thống-kê" transform="translate(-136.000000, -440.000000)" stroke="#4D4E4E" stroke-width="2">
            <g id="Group-4" transform="translate(28.000000, 366.000000)">
                <path d="M109.5,75.5 C133.320964,78.1979363 149.98763,79.5469044 159.5,79.5469044 C195.667017,79.5469044 215,75.5 215,75.5" id="Line-15"></path>
            </g>
        </g>
    </g>
</svg>